<?xml version="1.0" encoding="UTF-8" standalone="no"?>
<svg
   xmlns:dc="http://purl.org/dc/elements/1.1/"
   xmlns:cc="http://creativecommons.org/ns#"
   xmlns:rdf="http://www.w3.org/1999/02/22-rdf-syntax-ns#"
   xmlns:svg="http://www.w3.org/2000/svg"
   xmlns="http://www.w3.org/2000/svg"
   xmlns:sodipodi="http://sodipodi.sourceforge.net/DTD/sodipodi-0.dtd"
   xmlns:inkscape="http://www.inkscape.org/namespaces/inkscape"
   id="svg1"
   width="16"
   height="16"
   version="1.1"
   sodipodi:docname="align-sel-as-group-symbolic.svg"
   inkscape:version="1.0beta0 (1b5d333, 2019-09-08)">
<style id="s0">
   .base    { fill: #000000; }
   .success { fill: #009909; }
   .warning { fill: #FF1990; }
   .error   { fill: #00AAFF; }
   .dark    {  }
  </style>
  <style id="s2"> 
     @import '../../highlights.css'; 
  </style>
     
<metadata
     id="metadata41">
    <rdf:RDF>
      <cc:Work
         rdf:about="">
        <dc:format>image/svg+xml</dc:format>
        <dc:type
           rdf:resource="http://purl.org/dc/dcmitype/StillImage" />
        <dc:title></dc:title>
      </cc:Work>
    </rdf:RDF>
  </metadata>
  <sodipodi:namedview
     inkscape:showpageshadow="false"
     inkscape:snap-global="true"
     id="base"
     showgrid="true"
     inkscape:zoom="31.678384"
     inkscape:cx="14.304564"
     inkscape:cy="9.8483496"
     inkscape:current-layer="align-horizontal-right-to-anchor"
     inkscape:window-width="1858"
     inkscape:window-height="1177"
     inkscape:window-x="54"
     inkscape:window-y="-8"
     inkscape:window-maximized="1">
    <inkscape:grid
       id="GridFromPre046Settings"
       type="xygrid"
       originx="0pt"
       originy="0pt"
       spacingx="1pt"
       spacingy="1pt"
       color="#3f3fff"
       empcolor="#3f3fff"
       opacity="0.15"
       empopacity="0.38"
       empspacing="5" />
  </sodipodi:namedview>
  <defs
     id="defs3">
    <linearGradient
       id="linearGradient5704">
      <stop
         id="stop5706"
         offset="0"
         style="stop-color:#5a5a5a;stop-opacity:1" />
      <stop
         id="stop5708"
         offset="1"
         style="stop-color:#000000;stop-opacity:1" />
    </linearGradient>
    <linearGradient
       id="linearGradient5740">
      <stop
         id="stop5742"
         offset="0"
         style="stop-color:#ffffff;stop-opacity:1" />
      <stop
         id="stop5744"
         offset="1"
         style="stop-color:#98b6d3;stop-opacity:1" />
    </linearGradient>
    <linearGradient
       id="linearGradient6684">
      <stop
         id="stop6686"
         offset="0"
         style="stop-color:#ffbf00;stop-opacity:1" />
      <stop
         id="stop6688"
         offset="1"
         style="stop-color:#ffffff;stop-opacity:1" />
    </linearGradient>
  </defs>
  <g
     transform="matrix(0.666667,0,0,0.666667,-696.00036,-396.90832)"
     inkscape:label="00267"
     id="align-horizontal-right-to-anchor">
    <path
       inkscape:connector-curvature="0"
       id="rect22036"
       d="m 1044,595.36218 h 24 v 24 h -24 z"
       style="opacity:0;fill:none" />
    <path
       class="success"
       style="opacity:1;"
       d="m 1064,595.36218 h 4 v 3.99999 h -4 z"
       id="path983"
       inkscape:connector-curvature="0" />
    <path
       class="success"
       style="opacity:1;"
       d="m 1044,595.36218 h 4 v 4 h -4 z"
       id="path985"
       inkscape:connector-curvature="0" />
    <path
       class="success"
       style="opacity:1;"
       d="m 1064,615.36218 h 4 v 3.99999 h -4 z"
       id="path987"
       inkscape:connector-curvature="0" />
    <path
       inkscape:connector-curvature="0"
       id="rect22038"
       d="m 1044,615.36217 h 4 v 4 h -4 z"
       style="opacity:1;"
       class="success" />
    <path
       inkscape:connector-curvature="0"
       id="rect22042"
       d="m 1048,599.36218 h 12 v 4 h -12 z"
       style="opacity:1;"/>
    <path
       inkscape:connector-curvature="0"
       id="rect22044"
       d="m 1056,605.36218 h 8 v 4 h -8 z"
       style="opacity:1;"/>
    <path
       inkscape:connector-curvature="0"
       id="rect22046"
       d="m 1050,611.36217 h 12 v 4 h -12 z"
       style="opacity:1;"/>
  </g>
</svg>
