<?xml version="1.0" encoding="UTF-8" standalone="no"?>
<svg
   xmlns:dc="http://purl.org/dc/elements/1.1/"
   xmlns:cc="http://creativecommons.org/ns#"
   xmlns:rdf="http://www.w3.org/1999/02/22-rdf-syntax-ns#"
   xmlns:svg="http://www.w3.org/2000/svg"
   xmlns="http://www.w3.org/2000/svg"
   xmlns:sodipodi="http://sodipodi.sourceforge.net/DTD/sodipodi-0.dtd"
   xmlns:inkscape="http://www.inkscape.org/namespaces/inkscape"
   inkscape:version="1.0beta0 (1b5d333, 2019-09-08)"
   sodipodi:docname="align-horizontal-right-to-anchor-symbolic.svg"
   viewBox="0 0 16 16"
   height="16"
   width="16"
   id="svg1"
   version="1.1">
<style id="s0">
   .base    { fill: #000000; }
   .success { fill: #009909; }
   .warning { fill: #FF1990; }
   .error   { fill: #00AAFF; }
   .dark    {  }
  </style>
  <style id="s2"> 
     @import '../../highlights.css'; 
  </style>
     
<metadata
     id="metadata592">
    <rdf:RDF>
      <cc:Work
         rdf:about="">
        <dc:format>image/svg+xml</dc:format>
        <dc:type
           rdf:resource="http://purl.org/dc/dcmitype/StillImage" />
      </cc:Work>
    </rdf:RDF>
  </metadata>
  <defs
     id="defs590" />
  <sodipodi:namedview
     inkscape:current-layer="svg1"
     inkscape:window-maximized="1"
     inkscape:window-y="-8"
     inkscape:window-x="54"
     inkscape:window-height="1177"
     inkscape:window-width="1858"
     inkscape:cy="18.9312"
     inkscape:cx="7.576463"
     inkscape:zoom="15.839192"
     showgrid="true"
     id="namedview"
     guidetolerance="10"
     gridtolerance="10"
     objecttolerance="10"
     inkscape:snap-global="true">
    <inkscape:grid
       id="grid"
       type="xygrid" />
  </sodipodi:namedview>
  <path
     inkscape:connector-curvature="0"
     id="rect22386"
     d="M 0,0 H 16.000008 V 16.000008 H 0 Z"
     style="opacity:0;fill:none;"/>
  <path
     inkscape:connector-curvature="0"
     id="rect22388"
     d="m 13.33334,0 h 2.666668 V 2.666668 H 13.33334 Z"
     style="opacity:0.5;fill-opacity:1;"
     class="success" />
  <path
     inkscape:connector-curvature="0"
     id="rect22390"
     d="m 11.666673,0 h 1 v 16.000008 h -1 z"
     style="opacity:1;fill-opacity:1;"
     class="success" />
  <path
     inkscape:connector-curvature="0"
     id="rect22392"
     d="M 0.666667,2.666668 H 10.943406 V 6.000003 H 0.666667 Z"
     style="opacity:1;"/>
  <path
     inkscape:connector-curvature="0"
     id="rect22394"
     d="m 4.520469,7.333337 h 6.422937 V 9.333344 H 4.520469 Z"
     style="opacity:1;"/>
  <path
     inkscape:connector-curvature="0"
     id="rect22396"
     d="m 1.951268,10.666672 h 8.992138 V 13.33334 H 1.951268 Z"
     style="opacity:1;"/>
</svg>
