<?xml version="1.0" encoding="UTF-8" standalone="no"?>
<svg
   xmlns:dc="http://purl.org/dc/elements/1.1/"
   xmlns:cc="http://creativecommons.org/ns#"
   xmlns:rdf="http://www.w3.org/1999/02/22-rdf-syntax-ns#"
   xmlns:svg="http://www.w3.org/2000/svg"
   xmlns="http://www.w3.org/2000/svg"
   xmlns:sodipodi="http://sodipodi.sourceforge.net/DTD/sodipodi-0.dtd"
   xmlns:inkscape="http://www.inkscape.org/namespaces/inkscape"
   version="1.1"
   id="svg1"
   width="16"
   height="16"
   viewBox="0 0 16 16"
   sodipodi:docname="bounding-box-symbolic.svg"
   inkscape:version="1.0beta2 (5cb4cc3, 2019-12-30)">
  <defs
     id="defs915" />
  <style
     id="s0">.base { fill:#000000; }
.success { fill:#009909; }
.warning { fill:#FF1990; }
.error { fill:#00AAFF; }
.dark {  }
</style>
  <style
     id="s2">
@import '../../highlights.css';
</style>
  <sodipodi:namedview
     objecttolerance="10"
     gridtolerance="10"
     guidetolerance="10"
     id="namedview"
     showgrid="true"
     inkscape:zoom="22.627417"
     inkscape:cx="13.091474"
     inkscape:cy="8.8253809"
     inkscape:window-x="54"
     inkscape:window-y="-8"
     inkscape:snap-global="false"
     inkscape:window-width="1858"
     inkscape:window-height="1177"
     inkscape:window-maximized="1"
     inkscape:current-layer="layercompo">
    <inkscape:grid
       type="xygrid"
       id="grid" />
  </sodipodi:namedview>
  <metadata
     id="metadata1906">
    <rdf:RDF>
      <cc:Work
         rdf:about="">
        <dc:format>image/svg+xml</dc:format>
        <dc:type
           rdf:resource="http://purl.org/dc/dcmitype/StillImage" />
        <cc:license
           rdf:resource="http://creativecommons.org/publicdomain/zero/1.0/" />
        <dc:title />
        <dc:date>13 Jan 2019</dc:date>
        <dc:creator>
          <cc:Agent>
            <dc:title>Ramón Miranda</dc:title>
          </cc:Agent>
        </dc:creator>
        <dc:rights>
          <cc:Agent>
            <dc:title>see the license tab</dc:title>
          </cc:Agent>
        </dc:rights>
        <dc:subject>
          <rdf:Bag>
            <rdf:li>icon ui</rdf:li>
          </rdf:Bag>
        </dc:subject>
        <dc:description>This is a contribution with Inkscape Project from
Ramon Miranda www.ramonmiranda.com (design and SVG file)
Jabiertxo (SVG stuff to integrate them in UI)</dc:description>
        <dc:publisher>
          <cc:Agent>
            <dc:title />
          </cc:Agent>
        </dc:publisher>
        <dc:identifier />
        <dc:source />
        <dc:relation />
        <dc:language>-</dc:language>
        <dc:coverage />
        <dc:contributor>
          <cc:Agent>
            <dc:title>Ramon Miranda
Jabier Arraiza</dc:title>
          </cc:Agent>
        </dc:contributor>
      </cc:Work>
      <cc:License
         rdf:about="http://creativecommons.org/publicdomain/zero/1.0/">
        <cc:permits
           rdf:resource="http://creativecommons.org/ns#Reproduction" />
        <cc:permits
           rdf:resource="http://creativecommons.org/ns#Distribution" />
        <cc:permits
           rdf:resource="http://creativecommons.org/ns#DerivativeWorks" />
      </cc:License>
    </rdf:RDF>
  </metadata>
  <g
     inkscape:groupmode="layer"
     id="layercompo"
     inkscape:label="bounding-box">
    <path
       inkscape:connector-curvature="0"
       id="rect22048"
       d="M 0,0 H 16 V 16 H 0 Z"
       style="opacity:0;fill:none" />
    <path
       style="opacity:1"
       d="M 3.3776384,11.006787 8.0395952,14.015625 12.796198,2.0734626 Z"
       id="path937"
       inkscape:connector-curvature="0"
       sodipodi:nodetypes="cccc"
       class="error" />
    <path
       inkscape:connector-curvature="0"
       id="path9609"
       style="opacity:1"
       d="M 1.9633501,0.64414523 V 2.5040481 H 2.592481 V 13.497505 H 1.9633501 v 1.85835 H 3.8232529 V 14.66967 h 8.3550501 v 0.686185 H 14.03665 V 13.76202 13.497505 H 13.381588 V 2.5040481 H 14.03665 V 0.91073334 0.64414523 H 12.178303 V 1.3614476 H 3.8232529 V 0.91073334 0.64414523 Z M 12.850483,2.5040481 V 13.497505 h -0.67218 v 0.64106 H 8.7460883 3.8232529 V 13.76202 13.497505 H 3.1235859 V 2.5040481 h 0.699667 V 1.8925525 h 8.3550501 l 0.0046,0.6125507 z M 2.494455,1.1752501 H 3.292148 V 1.9729432 H 2.494455 Z m 10.214953,0 h 0.795619 v 0.7976931 c -0.266752,2.509e-4 -0.804165,-2.87e-4 -0.804165,-2.87e-4 0,0 0.0082,-0.5316567 0.0085,-0.7974061 z M 2.494455,14.02861 h 0.797693 v 0.79614 H 2.494455 Z m 10.214953,0 h 0.795619 v 0.79614 h -0.795619 z" />
  </g>
</svg>
