<?xml version="1.0" encoding="UTF-8" standalone="no"?>
<svg
   xmlns:dc="http://purl.org/dc/elements/1.1/"
   xmlns:cc="http://creativecommons.org/ns#"
   xmlns:rdf="http://www.w3.org/1999/02/22-rdf-syntax-ns#"
   xmlns:svg="http://www.w3.org/2000/svg"
   xmlns="http://www.w3.org/2000/svg"
   xmlns:sodipodi="http://sodipodi.sourceforge.net/DTD/sodipodi-0.dtd"
   xmlns:inkscape="http://www.inkscape.org/namespaces/inkscape"
   version="1.1"
   id="svg1"
   width="16"
   height="16"
   viewBox="0 0 16 16"
   sodipodi:docname="dialog-selectors-symbolic.svg"
   inkscape:version="1.1-dev (6039630, 2019-12-20)">
  <style
     id="s0">.base { fill:#000000; }
.success { fill:#009909; }
.warning { fill:#FF1990; }
.error { fill:#00AAFF; }
.dark {  }
</style>
  <style
     id="s2">
@import '../../highlights.css';
</style>
  <metadata
     id="metadata6901">
    <rdf:RDF>
      <cc:Work
         rdf:about="">
        <dc:format>image/svg+xml</dc:format>
        <dc:type
           rdf:resource="http://purl.org/dc/dcmitype/StillImage" />
        <dc:title />
      </cc:Work>
    </rdf:RDF>
  </metadata>
  <defs
     id="defs6899" />
  <sodipodi:namedview
     objecttolerance="10"
     gridtolerance="10"
     guidetolerance="10"
     id="namedview"
     showgrid="true"
     inkscape:zoom="19.209395"
     inkscape:cx="3.3629461"
     inkscape:cy="7.5733863"
     inkscape:window-width="1296"
     inkscape:window-height="890"
     inkscape:window-x="65"
     inkscape:window-y="-6"
     inkscape:window-maximized="1"
     inkscape:current-layer="svg1">
    <inkscape:grid
       type="xygrid"
       id="grid" />
  </sodipodi:namedview>
  <g
     transform="translate(-44.976438,-667.36216)"
     inkscape:label="00016"
     id="dialog-xml-editor">
    <g
       id="g2966"
       transform="matrix(0.9985297,0,0,1,30.02202,59.99998)">
      <path
         inkscape:connector-curvature="0"
         id="rect10285-1"
         d="m 14.97644,607.36218 h 16 v 16 h -16 z"
         style="opacity:0;fill:none" />
      <path
         class="warning"
         inkscape:connector-curvature="0"
         id="path10291-8"
         d="m 17,609.3622 h 12 v 2 H 17 Z"
         style="opacity:1" />
      <path
         inkscape:connector-curvature="0"
         id="rect10298-7"
         d="m 15,607.36218 h 1 v 16 h -1 z"
         style="opacity:1" />
      <path
         inkscape:connector-curvature="0"
         id="rect10300-4"
         d="m 15,607.36218 h 16 v 1 H 15 Z"
         style="opacity:1" />
      <path
         inkscape:connector-curvature="0"
         id="rect10302-5"
         d="m 30,607.36218 h 1 v 16 h -1 z"
         style="opacity:1" />
      <path
         inkscape:connector-curvature="0"
         id="rect10304-6"
         d="m 15,622.36218 h 16 v 1 H 15 Z"
         style="opacity:1" />
    </g>
    <path
       inkscape:connector-curvature="0"
       d="m 50.754864,672.36216 c -0.398968,0 -0.752305,0.0391 -1.057688,0.11729 -0.300457,0.0782 -0.553473,0.18853 -0.760346,0.33133 -0.201946,0.1428 -0.355319,0.31299 -0.458756,0.51019 -0.09851,0.1972 -0.146547,0.41341 -0.146547,0.64801 0,0.1768 0.02006,0.35046 0.05947,0.52046 0.0394,0.17 0.08098,0.33773 0.125309,0.50433 0.04433,0.1666 0.0859,0.33333 0.125308,0.49993 0.03941,0.1666 0.05947,0.33433 0.05947,0.50433 0,0.2176 -0.08672,0.39472 -0.259113,0.53072 -0.172393,0.136 -0.420394,0.20378 -0.745479,0.20378 v 0.54538 c 0.325085,0 0.573085,0.0702 0.745479,0.20965 0.172393,0.136 0.259113,0.31066 0.259113,0.52486 0,0.17 -0.02006,0.33919 -0.05947,0.5058 -0.0394,0.1666 -0.08098,0.33432 -0.125308,0.50433 -0.04433,0.1666 -0.0859,0.33579 -0.125309,0.50579 -0.03941,0.1666 -0.05947,0.33779 -0.05947,0.51459 0,0.23461 0.04804,0.45081 0.146547,0.64801 0.103436,0.1972 0.25681,0.36739 0.458756,0.5102 0.206873,0.1428 0.459889,0.25313 0.760346,0.33133 0.305383,0.0816 0.65872,0.12168 1.057688,0.12168 h 0.399287 v -0.40757 c 0,-0.068 -0.03511,-0.11747 -0.104069,-0.14807 -0.06896,-0.0306 -0.132042,-0.0455 -0.191148,-0.0455 h -0.148672 c -0.384191,0 -0.683797,-0.0851 -0.900521,-0.2551 -0.216723,-0.17 -0.324952,-0.40351 -0.324952,-0.69932 0,-0.1904 0.01649,-0.37444 0.05097,-0.55124 0.03448,-0.1768 0.07461,-0.34799 0.118937,-0.51459 0.04433,-0.17001 0.08233,-0.33773 0.116813,-0.50433 0.03448,-0.1666 0.0531,-0.3358 0.0531,-0.5058 0,-0.1258 -0.02865,-0.24306 -0.08283,-0.35186 -0.05418,-0.1122 -0.132313,-0.21214 -0.235749,-0.30054 -0.09851,-0.0884 -0.216772,-0.16311 -0.354687,-0.22431 -0.132989,-0.0612 -0.281346,-0.10721 -0.443889,-0.13781 0.162543,-0.0306 0.3109,-0.0766 0.443889,-0.13781 0.137915,-0.0646 0.256176,-0.14031 0.354687,-0.22871 0.103435,-0.0884 0.181568,-0.18735 0.235749,-0.29615 0.05418,-0.1122 0.08283,-0.23192 0.08283,-0.35772 0,-0.17 -0.01862,-0.33773 -0.0531,-0.50433 -0.03448,-0.1666 -0.07248,-0.33333 -0.116813,-0.49994 -0.04433,-0.17 -0.08446,-0.34365 -0.118937,-0.52045 -0.03448,-0.1768 -0.05097,-0.35938 -0.05097,-0.54978 0,-0.2924 0.108229,-0.52492 0.324952,-0.69492 0.216724,-0.1734 0.51633,-0.2595 0.900521,-0.2595 h 0.148671 c 0.05911,0 0.122191,-0.0148 0.191149,-0.0454 0.06896,-0.0306 0.104069,-0.0801 0.104069,-0.14807 v -0.40317 z m 4.04385,0 v 0.40317 c 0,0.068 0.03299,0.11747 0.101948,0.14807 0.07388,0.0306 0.139091,0.0454 0.193272,0.0454 h 0.146547 c 0.384191,0 0.685923,0.0861 0.902645,0.2595 0.216724,0.17 0.324952,0.40252 0.324952,0.69492 0,0.1904 -0.01862,0.37298 -0.05309,0.54978 -0.03447,0.1768 -0.07248,0.35045 -0.116812,0.52046 -0.04434,0.1666 -0.08445,0.33333 -0.118937,0.49993 -0.03448,0.1666 -0.05097,0.33433 -0.05097,0.50433 0,0.1258 0.02652,0.24552 0.08071,0.35772 0.05418,0.1088 0.130867,0.20775 0.229377,0.29615 0.103437,0.0884 0.221697,0.1641 0.354687,0.22871 0.137914,0.0612 0.287717,0.10721 0.450259,0.13781 -0.162542,0.0306 -0.312345,0.0766 -0.450259,0.13781 -0.13299,0.0612 -0.251252,0.13591 -0.354687,0.22431 -0.09851,0.0884 -0.175195,0.18834 -0.229377,0.30054 -0.05418,0.1088 -0.08071,0.22606 -0.08071,0.35186 0,0.17 0.0165,0.3392 0.05097,0.5058 0.03448,0.1666 0.0746,0.33433 0.118937,0.50433 0.04433,0.1666 0.08233,0.33779 0.116812,0.51459 0.03448,0.1768 0.05309,0.36084 0.05309,0.55125 0,0.2958 -0.108228,0.52931 -0.324952,0.69931 -0.216723,0.17001 -0.518453,0.2551 -0.902645,0.2551 h -0.146549 c -0.05418,0 -0.119391,0.0149 -0.193273,0.0455 -0.06896,0.0306 -0.101945,0.0801 -0.101945,0.14807 v 0.40757 h 0.397163 c 0.398968,0 0.748735,-0.0401 1.049193,-0.12168 0.305383,-0.0782 0.560522,-0.18853 0.76247,-0.33133 0.206871,-0.14281 0.358121,-0.313 0.456632,-0.5102 0.103437,-0.1972 0.155042,-0.4134 0.155042,-0.64801 0,-0.1768 -0.01794,-0.34799 -0.05734,-0.51459 -0.0394,-0.17 -0.08098,-0.33919 -0.125307,-0.50579 -0.04434,-0.17001 -0.08803,-0.33773 -0.127434,-0.50433 -0.03941,-0.16661 -0.05734,-0.3358 -0.05734,-0.5058 0,-0.2142 0.0846,-0.38886 0.256988,-0.52486 0.172393,-0.1394 0.422517,-0.20965 0.747603,-0.20965 v -0.54538 c -0.325086,0 -0.57521,-0.0678 -0.747603,-0.20378 -0.172393,-0.136 -0.256988,-0.31312 -0.256988,-0.53072 0,-0.17 0.01795,-0.33773 0.05734,-0.50433 0.03941,-0.1666 0.0831,-0.33333 0.127434,-0.49993 0.04433,-0.1666 0.08591,-0.33433 0.125307,-0.50433 0.03941,-0.17 0.05734,-0.34366 0.05734,-0.52046 0,-0.2346 -0.0516,-0.45081 -0.155042,-0.64801 -0.09851,-0.1972 -0.249762,-0.36739 -0.456632,-0.51019 -0.201948,-0.1428 -0.457087,-0.25313 -0.76247,-0.33133 -0.300457,-0.0782 -0.650225,-0.11729 -1.049193,-0.11729 z"
       id="path8483" />
  </g>
</svg>
