<?xml version="1.0" encoding="UTF-8" standalone="no"?>
<svg
   xmlns:dc="http://purl.org/dc/elements/1.1/"
   xmlns:cc="http://creativecommons.org/ns#"
   xmlns:rdf="http://www.w3.org/1999/02/22-rdf-syntax-ns#"
   xmlns:svg="http://www.w3.org/2000/svg"
   xmlns="http://www.w3.org/2000/svg"
   xmlns:sodipodi="http://sodipodi.sourceforge.net/DTD/sodipodi-0.dtd"
   xmlns:inkscape="http://www.inkscape.org/namespaces/inkscape"
   inkscape:version="1.1-dev (6039630, 2019-12-20)"
   sodipodi:docname="document-print-symbolic.svg"
   viewBox="0 0 16 16"
   height="16"
   width="16"
   id="svg1"
   version="1.1">
  <metadata
     id="metadata1705">
    <rdf:RDF>
      <cc:Work
         rdf:about="">
        <dc:format>image/svg+xml</dc:format>
        <dc:type
           rdf:resource="http://purl.org/dc/dcmitype/StillImage" />
      </cc:Work>
    </rdf:RDF>
  </metadata>
  <defs
     id="defs1703" />
  <style
     id="s0">.base { fill:#000000; }
.success { fill:#009909; }
.warning { fill:#FF1990; }
.error { fill:#00AAFF; }
.dark {  }
</style>
  <style
     id="s2">
@import '../../highlights.css';
</style>
  <sodipodi:namedview
     inkscape:current-layer="g10817"
     inkscape:window-maximized="1"
     inkscape:window-y="-6"
     inkscape:window-x="65"
     inkscape:window-height="890"
     inkscape:window-width="1296"
     inkscape:cy="8"
     inkscape:cx="8"
     inkscape:zoom="41.125"
     showgrid="true"
     id="namedview"
     guidetolerance="10"
     gridtolerance="10"
     objecttolerance="10">
    <inkscape:grid
       id="grid"
       type="xygrid" />
  </sodipodi:namedview>
  <g
     inkscape:label="00374"
     id="document-print"
     transform="translate(-317,-1131.3622)">
    <g
       inkscape:label="printer"
       id="g10817"
       transform="translate(269,733.3622)">
      <path
         style="opacity:0;fill:none"
         d="m 48,398 h 16 v 16 H 48 Z"
         id="rect10821"
         inkscape:connector-curvature="0" />
      <path
         id="path3520"
         d="m 50,402 c -0.5,0 -1,0.5 -1,1 v 4 c 0,0.5 0.5,1 1,1 h 1 v -2 h 10 v 2 h 1 c 0.5,0 1,-0.5 1,-1 v -4 c 0,-0.5 -0.5,-1 -1,-1 z"
         style="opacity:0.8"
         inkscape:connector-curvature="0" />
      <path
         style="opacity:1"
         d="m 52,399 v 2 h 8 v -2 z"
         id="path4804"
         inkscape:connector-curvature="0" />
      <path
         id="path4806"
         d="m 52,407 v 5 h 8 v -5 z"
         style="opacity:1"
         inkscape:connector-curvature="0" />
    </g>
  </g>
</svg>
