<?xml version="1.0" encoding="UTF-8" standalone="no"?>
<svg
   xmlns:dc="http://purl.org/dc/elements/1.1/"
   xmlns:cc="http://creativecommons.org/ns#"
   xmlns:rdf="http://www.w3.org/1999/02/22-rdf-syntax-ns#"
   xmlns:svg="http://www.w3.org/2000/svg"
   xmlns="http://www.w3.org/2000/svg"
   xmlns:sodipodi="http://sodipodi.sourceforge.net/DTD/sodipodi-0.dtd"
   xmlns:inkscape="http://www.inkscape.org/namespaces/inkscape"
   inkscape:version="1.0beta2 (7cf281c, 2019-12-21)"
   sodipodi:docname="draw-geometry-set-bounding-box-symbolic.svg"
   viewBox="0 0 16 16"
   height="16"
   width="16"
   id="svg1"
   version="1.1">
  <metadata
     id="metadata17082">
    <rdf:RDF>
      <cc:Work
         rdf:about="">
        <dc:format>image/svg+xml</dc:format>
        <dc:type
           rdf:resource="http://purl.org/dc/dcmitype/StillImage" />
      </cc:Work>
    </rdf:RDF>
  </metadata>
  <defs
     id="defs17080" />
  <style
     id="s0">
.base { fill:#000000; }
.success { fill:#009909; }
.warning { fill:#FF1990; }
.error { fill:#00AAFF; }
.dark { }
</style>
  <style
     id="s2">
@import '../../highlights.css';
</style>
  <sodipodi:namedview
     inkscape:current-layer="svg1"
     inkscape:window-maximized="1"
     inkscape:window-y="-6"
     inkscape:window-x="65"
     inkscape:window-height="890"
     inkscape:window-width="1296"
     inkscape:cy="8"
     inkscape:cx="8"
     inkscape:zoom="41.125"
     showgrid="true"
     id="namedview"
     guidetolerance="10"
     gridtolerance="10"
     objecttolerance="10">
    <inkscape:grid
       id="grid"
       type="xygrid" />
  </sodipodi:namedview>
  <g
     inkscape:label="00229"
     id="draw-geometry-set-bounding-box"
     transform="translate(-739,-589.36218)">
    <path
       style="opacity:0;fill:none"
       d="m 739,589.36218 h 16 v 16 h -16 z"
       id="rect14757"
       inkscape:connector-curvature="0" />
    <path
       style="opacity:1"
       d="m 742,591.36218 h 1 v 1 h -1 z"
       id="rect14759"
       inkscape:connector-curvature="0" />
    <path
       style="opacity:1"
       d="m 742,593.36218 h 1 v 1 h -1 z"
       id="rect14761"
       inkscape:connector-curvature="0" />
    <path
       style="opacity:1"
       d="m 742,595.36218 h 1 v 1 h -1 z"
       id="rect14763"
       inkscape:connector-curvature="0" />
    <path
       style="opacity:1"
       d="m 742,597.36218 h 1 v 1 h -1 z"
       id="rect14765"
       inkscape:connector-curvature="0" />
    <path
       style="opacity:1"
       d="m 742,599.36218 h 1 v 1 h -1 z"
       id="rect14767"
       inkscape:connector-curvature="0" />
    <path
       style="opacity:1"
       d="m 742,601.36218 h 1 v 1 h -1 z"
       id="rect14769"
       inkscape:connector-curvature="0" />
    <path
       style="opacity:1"
       d="m 742,603.36218 h 1 v 1 h -1 z"
       id="rect14771"
       inkscape:connector-curvature="0" />
    <path
       style="opacity:1"
       d="m 744,603.36218 h 1 v 1 h -1 z"
       id="rect14773"
       inkscape:connector-curvature="0" />
    <path
       style="opacity:1"
       d="m 746,603.36218 h 1 v 1 h -1 z"
       id="rect14775"
       inkscape:connector-curvature="0" />
    <path
       style="opacity:1"
       d="m 748,603.36218 h 1 v 1 h -1 z"
       id="rect14777"
       inkscape:connector-curvature="0" />
    <path
       style="opacity:1"
       d="m 750,603.36218 h 1 v 1 h -1 z"
       id="rect14779"
       inkscape:connector-curvature="0" />
    <path
       style="opacity:1"
       d="m 750,601.36218 h 1 v 1 h -1 z"
       id="rect14781"
       inkscape:connector-curvature="0" />
    <path
       style="opacity:1"
       d="m 750,599.36218 h 1 v 1 h -1 z"
       id="rect14783"
       inkscape:connector-curvature="0" />
    <path
       style="opacity:1"
       d="m 750,597.36218 h 1 v 1 h -1 z"
       id="rect14785"
       inkscape:connector-curvature="0" />
    <path
       style="opacity:1"
       d="m 750,595.36218 h 1 v 1 h -1 z"
       id="rect14787"
       inkscape:connector-curvature="0" />
    <path
       style="opacity:1"
       d="m 750,593.36218 h 1 v 1 h -1 z"
       id="rect14789"
       inkscape:connector-curvature="0" />
    <path
       style="opacity:1"
       d="m 750,591.36218 h 1 v 1 h -1 z"
       id="rect14791"
       inkscape:connector-curvature="0" />
    <path
       style="opacity:1"
       d="m 748,591.36218 h 1 v 1 h -1 z"
       id="rect14793"
       inkscape:connector-curvature="0" />
    <path
       style="opacity:1"
       d="m 746,591.36218 h 1 v 1 h -1 z"
       id="rect14795"
       inkscape:connector-curvature="0" />
    <path
       style="opacity:1"
       d="m 744,591.36218 h 1 v 1 h -1 z"
       id="rect14797"
       inkscape:connector-curvature="0" />
    <path
       transform="translate(0,512.3622)"
       inkscape:connector-curvature="0"
       id="path14799"
       d="m 742,85 -3,-3 v 6 z"
       style="opacity:1" />
    <path
       style="opacity:1"
       d="m 751,597.3622 3,-3 v 6 z"
       id="path14801"
       inkscape:connector-curvature="0" />
  </g>
</svg>
