<?xml version="1.0" encoding="UTF-8" standalone="no"?>
<svg
   xmlns:dc="http://purl.org/dc/elements/1.1/"
   xmlns:cc="http://creativecommons.org/ns#"
   xmlns:rdf="http://www.w3.org/1999/02/22-rdf-syntax-ns#"
   xmlns:svg="http://www.w3.org/2000/svg"
   xmlns="http://www.w3.org/2000/svg"
   xmlns:sodipodi="http://sodipodi.sourceforge.net/DTD/sodipodi-0.dtd"
   xmlns:inkscape="http://www.inkscape.org/namespaces/inkscape"
   inkscape:version="1.1-dev (1fceb22ce1, 2019-12-30, custom)"
   sodipodi:docname="feComponentTransfer-icon-symbolic.svg"
   viewBox="0 0 16 16"
   height="16"
   width="16"
   id="svg1"
   version="1.1">
  <defs
     id="defs2452" />
  <style
     id="s0">.base { fill:#000000; }
.success { fill:#009909; }
.warning { fill:#FF1990; }
.error { fill:#00AAFF; }
.dark {  }
</style>
  <style
     id="s2">
@import '../../highlights.css';
</style>
  <sodipodi:namedview
     inkscape:current-layer="layercompo"
     inkscape:window-maximized="1"
     inkscape:window-height="1376"
     inkscape:window-width="2560"
     inkscape:window-y="27"
     inkscape:window-x="0"
     inkscape:cy="8.9538646"
     inkscape:cx="7.4837792"
     inkscape:zoom="27.166187"
     showgrid="true"
     id="namedview"
     guidetolerance="10"
     gridtolerance="10"
     objecttolerance="10">
    <inkscape:grid
       id="grid"
       type="xygrid" />
  </sodipodi:namedview>
  <metadata
     id="metadata1906">
    <rdf:RDF>
      <cc:Work
         rdf:about="">
        <dc:format>image/svg+xml</dc:format>
        <dc:type
           rdf:resource="http://purl.org/dc/dcmitype/StillImage" />
        <cc:license
           rdf:resource="http://creativecommons.org/publicdomain/zero/1.0/" />
        <dc:title></dc:title>
        <dc:date>13 Nov 2018</dc:date>
        <dc:creator>
          <cc:Agent>
            <dc:title>Ramón Miranda</dc:title>
          </cc:Agent>
        </dc:creator>
        <dc:rights>
          <cc:Agent>
            <dc:title>see the license tab</dc:title>
          </cc:Agent>
        </dc:rights>
        <dc:subject>
          <rdf:Bag>
            <rdf:li>icon ui</rdf:li>
          </rdf:Bag>
        </dc:subject>
        <dc:description>This is a little contribution with Inkscape Project
Ramon Miranda  www.ramonmiranda.com (design and SVG file)
Jabiertxo (SVG stuff to integrate them in UI)</dc:description>
        <dc:publisher>
          <cc:Agent>
            <dc:title />
          </cc:Agent>
        </dc:publisher>
        <dc:identifier />
        <dc:source />
        <dc:relation />
        <dc:language>-</dc:language>
        <dc:coverage />
        <dc:contributor>
          <cc:Agent>
            <dc:title>Ramon Miranda
Jabier Arraiza</dc:title>
          </cc:Agent>
        </dc:contributor>
      </cc:Work>
      <cc:License
         rdf:about="http://creativecommons.org/publicdomain/zero/1.0/">
        <cc:permits
           rdf:resource="http://creativecommons.org/ns#Reproduction" />
        <cc:permits
           rdf:resource="http://creativecommons.org/ns#Distribution" />
        <cc:permits
           rdf:resource="http://creativecommons.org/ns#DerivativeWorks" />
      </cc:License>
    </rdf:RDF>
  </metadata>
  <g
     inkscape:label="feComponentTransfer"
     id="layercompo"
     inkscape:groupmode="layer">
    <path
       style="opacity:0;fill:none"
       d="M 0,0 H 16 V 16 H 0 Z"
       id="rect22048" />
    <path
       class="error"
       id="path2482"
       d="m 2.7049808,12.229432 v 0.31438 0.314382 0.314379 0.314383 0.31395 0.31438 h 0.3887771 v -0.31438 -0.31395 -0.314383 -0.314379 -0.314382 -0.31438 z"
       style="opacity:1" />
    <path
       class="error"
       id="path2480"
       d="M 1.926986,12.229432 H 1.5382088 v 0.31438 0.314382 0.314379 0.314383 0.31395 0.31438 H 1.926986 v -0.31438 -0.31395 -0.314383 H 2.3157632 2.7045404 V 12.858194 H 2.3157632 1.926986 v -0.314382 z"
       style="opacity:1" />
    <path
       class="error"
       id="path2478"
       d="m 1.926986,11.915482 v 0.31395 h 0.3887772 0.3887772 v -0.31395 H 2.3157632 Z"
       style="opacity:1" />
    <path
       class="error"
       id="path2476"
       d="m 2.7045404,9.7010553 v 0.3143797 0.314382 H 3.0937579 V 10.015435 9.7010553 Z"
       style="opacity:1" />
    <path
       class="error"
       id="path2474"
       d="m 2.7045404,8.758343 v 0.3143797 0.314382 H 3.0937579 V 9.0727227 8.758343 Z"
       style="opacity:1" />
    <path
       class="error"
       id="path2472"
       d="m 1.5382088,8.4439611 v 0.3143819 0.3143797 0.314382 0.3139506 0.3143797 0.314382 0.314379 H 1.926986 2.3157632 2.7045404 V 10.329817 H 2.3157632 1.926986 V 10.015435 9.7010553 H 2.3157632 2.7045404 V 9.3871047 H 2.3157632 1.926986 V 9.0727227 8.758343 H 2.3157632 2.7045404 V 8.4439611 H 2.3157632 1.926986 Z"
       style="opacity:1" />
    <path
       class="error"
       id="path2468"
       d="M 2.7045404,6.8582959 H 3.0937579 V 6.5443455 6.2299658 5.9155839 H 2.7045404 2.3157632 v 0.3143819 h 0.3887772 v 0.3143797 z"
       style="opacity:1" />
    <path
       class="error"
       id="path2466"
       d="M 1.926986,6.8582959 V 7.1726778 H 2.3157632 2.7045404 V 6.8582959 H 2.3157632 Z"
       style="opacity:1" />
    <path
       class="error"
       id="path2464"
       d="M 1.926986,5.2872538 H 1.5382088 V 5.6012042 5.9155839 6.2299658 6.5443455 6.8582959 H 1.926986 V 6.5443455 6.2299658 5.9155839 5.6012042 Z"
       style="opacity:1" />
    <path
       class="error"
       id="path2462"
       d="M 1.926986,4.9728719 V 5.2872538 H 2.3157632 2.7045404 V 4.9728719 H 2.3157632 Z"
       style="opacity:1" />
    <path
       d="m 8.3449143,2.843599 c -0.6706495,0 -1.2106569,0.5399987 -1.2106569,1.2106458 V 4.6834359 C 6.6313969,4.5566143 6.3755297,4.3093215 6.054793,4.0095166 5.5889913,3.5741262 4.9567,3.0078847 3.7096228,3.0078847 v 0.8708908 c 1.0208483,0 1.2708583,0.3181693 1.7508184,0.7668132 0.3661631,0.3422587 0.857111,0.7442938 1.6738162,0.9160485 V 6.5452065 C 6.6884716,6.532259 6.3862973,6.5050693 6.1881213,6.4729538 5.911864,6.4281814 5.8452108,6.3909001 5.7262172,6.3306017 5.6072235,6.2703013 5.4103027,6.1697753 5.1112112,6.1190071 4.8121196,6.0682388 4.4027101,6.0485643 3.7096228,6.0661073 l 0.022019,0.8700321 c 0.6660474,-0.016867 1.0325628,0.00712 1.2338656,0.041287 0.2013027,0.03417 0.2288271,0.059724 0.3672861,0.1298802 0.1384368,0.070156 0.3620454,0.1675577 0.7160537,0.2249252 0.2588398,0.041948 0.6008255,0.071423 1.0854978,0.084295 v 1.749092 C 6.6496731,9.1785003 6.3076874,9.2075352 6.0488476,9.2494825 5.6948394,9.3068522 5.4712308,9.4042513 5.3327939,9.4744078 5.1943349,9.5445643 5.1668105,9.570118 4.9655078,9.6042875 4.7642051,9.6384623 4.3976896,9.6624356 3.7316423,9.6455703 l -0.022019,0.8704617 c 0.6930874,0.01755 1.1024969,-0.0026 1.4015885,-0.05333 0.2990915,-0.05077 0.4960123,-0.151294 0.6150059,-0.211595 0.1189937,-0.0603 0.1856469,-0.09758 0.4619041,-0.142351 0.1981761,-0.03212 0.5003503,-0.05858 0.9461361,-0.0714 v 0.982708 c -0.8167053,0.171875 -1.3076532,0.574223 -1.6738163,0.916482 -0.4799601,0.448646 -0.7299701,0.766813 -1.7508184,0.766813 v 0.870462 c 1.2470772,0 1.8793685,-0.565811 2.3451702,-1.001203 0.3207367,-0.299803 0.5766039,-0.5474 1.0794644,-0.674349 v 0.629623 c 0,0.670647 0.5400074,1.210641 1.2106569,1.210645 h 1.5903841 c 0.6706482,0 1.2102162,-0.539998 1.2102162,-1.210645 V 9.1613184 h 1.19216 V 10.408949 L 14.461791,8.2912864 12.337675,6.1736266 v 1.2472005 h -1.19216 V 4.0542448 c 0,-0.6706471 -0.539568,-1.2106458 -1.2102166,-1.2106458 z m 1.3405284,3.0715555 h 0.4937223 c 0.09628,-2.65e-5 0.174401,0.077715 0.174593,0.1737475 v 0.4330804 c -1.92e-4,0.096033 -0.07831,0.173774 -0.174593,0.1737475 H 9.6798492 c -0.1628563,0 -0.2430736,0.037867 -0.2657978,0.06064 -0.019818,0.021293 -0.059343,0.1120861 -0.059343,0.2864259 v 0.1062268 h 0.6855356 c 0.09629,-3.86e-5 0.174424,0.077707 0.174615,0.1737496 v 0.098055 c 0.0072,0.3168132 -0.0063,0.3687922 -0.06108,0.4391004 -0.03159,0.027118 -0.07186,0.042068 -0.113533,0.042148 H 9.3547088 v 2.5911664 c -1.912e-4,0.09603 -0.078311,0.173775 -0.174593,0.173749 H 8.6554119 c -0.096282,2.6e-5 -0.1744018,-0.07772 -0.174593,-0.173749 V 7.9020754 H 8.1556782 C 8.0593913,7.9018715 7.9814567,7.823935 7.9815036,7.7278964 V 7.3227719 c 1.902e-4,-0.095871 0.078055,-0.1735463 0.1741746,-0.1737497 h 0.3251407 v -0.046878 c 0,-0.3795553 0.088893,-0.688712 0.2988934,-0.8936832 0.209538,-0.206283 0.5219293,-0.2933065 0.9057304,-0.2933065 z"
       style="opacity:1;fill:#000000"
       id="path2460" />
    <path
       class="error"
       id="path2458"
       d="M 2.7049808,2.758445 V 3.0728269 3.3872067 3.7015864 H 3.0937579 V 3.3872067 3.0728269 2.758445 Z"
       style="opacity:1" />
    <path
       class="error"
       id="path2456"
       d="m 2.7049808,1.815733 v 0.3143797 0.314382 H 3.0937579 V 2.1301127 1.815733 Z"
       style="opacity:1" />
    <path
       class="error"
       id="path9609"
       d="M 1.5382088,1.5013533 V 1.815733 2.1301127 2.4444947 2.758445 3.0728269 3.3872067 3.7015864 H 1.926986 V 3.3872067 3.0728269 2.758445 H 2.3157632 2.7049808 V 2.4444947 H 2.3157632 1.926986 V 2.1301127 1.815733 H 2.3157632 2.7049808 V 1.5013533 H 2.3157632 1.926986 Z"
       style="opacity:1" />
  </g>
</svg>
