<?xml version="1.0" encoding="UTF-8" standalone="no"?>
<svg
   xmlns:dc="http://purl.org/dc/elements/1.1/"
   xmlns:cc="http://creativecommons.org/ns#"
   xmlns:rdf="http://www.w3.org/1999/02/22-rdf-syntax-ns#"
   xmlns:svg="http://www.w3.org/2000/svg"
   xmlns="http://www.w3.org/2000/svg"
   xmlns:sodipodi="http://sodipodi.sourceforge.net/DTD/sodipodi-0.dtd"
   xmlns:inkscape="http://www.inkscape.org/namespaces/inkscape"
   version="1.1"
   id="svg1"
   width="16"
   height="16"
   viewBox="0 0 16 16"
   sodipodi:docname="feOffset-icon-symbolic.svg"
   inkscape:version="1.1-dev (1fceb22ce1, 2019-12-30, custom)">
  <style
     id="s0">.base { fill:#000000; }
.success { fill:#009909; }
.warning { fill:#FF1990; }
.error { fill:#00AAFF; }
.dark {  }
</style>
  <style
     id="s2">
@import '../../highlights.css';
</style>
  <defs
     id="defs409" />
  <sodipodi:namedview
     objecttolerance="10"
     gridtolerance="10"
     guidetolerance="10"
     id="namedview"
     showgrid="true"
     inkscape:zoom="32.000001"
     inkscape:cx="16.364551"
     inkscape:cy="5.8359426"
     inkscape:window-x="0"
     inkscape:window-y="27"
     inkscape:snap-global="false"
     inkscape:window-width="2560"
     inkscape:window-height="1376"
     inkscape:window-maximized="1"
     inkscape:current-layer="layer">
    <inkscape:grid
       type="xygrid"
       id="grid" />
  </sodipodi:namedview>
  <metadata
     id="metadata1906">
    <rdf:RDF>
      <cc:Work
         rdf:about="">
        <dc:format>image/svg+xml</dc:format>
        <dc:type
           rdf:resource="http://purl.org/dc/dcmitype/StillImage" />
        <cc:license
           rdf:resource="http://creativecommons.org/publicdomain/zero/1.0/" />
        <dc:title></dc:title>
        <dc:date>13 Nov 2018</dc:date>
        <dc:creator>
          <cc:Agent>
            <dc:title>Ramón Miranda</dc:title>
          </cc:Agent>
        </dc:creator>
        <dc:rights>
          <cc:Agent>
            <dc:title>see the license tab</dc:title>
          </cc:Agent>
        </dc:rights>
        <dc:subject>
          <rdf:Bag>
            <rdf:li>icon ui</rdf:li>
          </rdf:Bag>
        </dc:subject>
        <dc:description>This is a little contribution with Inkscape Project
Ramon Miranda  www.ramonmiranda.com (design and SVG file)
Jabiertxo (SVG stuff to integrate them in UI)</dc:description>
        <dc:publisher>
          <cc:Agent>
            <dc:title />
          </cc:Agent>
        </dc:publisher>
        <dc:identifier />
        <dc:source />
        <dc:relation />
        <dc:language>-</dc:language>
        <dc:coverage />
        <dc:contributor>
          <cc:Agent>
            <dc:title>Ramon Miranda
Jabier Arraiza</dc:title>
          </cc:Agent>
        </dc:contributor>
      </cc:Work>
      <cc:License
         rdf:about="http://creativecommons.org/publicdomain/zero/1.0/">
        <cc:permits
           rdf:resource="http://creativecommons.org/ns#Reproduction" />
        <cc:permits
           rdf:resource="http://creativecommons.org/ns#Distribution" />
        <cc:permits
           rdf:resource="http://creativecommons.org/ns#DerivativeWorks" />
      </cc:License>
    </rdf:RDF>
  </metadata>
  <g
     inkscape:groupmode="layer"
     id="layer"
     inkscape:label="feOffset">
    <path
       id="rect22048"
       d="M 0,0 H 16 V 16 H 0 Z"
       style="opacity:0;fill:none" />
    <path
       class="error"
       id="path499"
       d="M 6.7908636,1.8800044 C 6.7113533,1.6780682 6.6540814,1.5062948 6.6631,1.4967807 6.7058247,1.4516938 7.123008,1.333721 7.4030938,1.2875215 l 0.1124901,-0.018555 0.017243,0.1052814 c 0.019178,0.1171133 0.084557,0.6207198 0.087313,0.6725712 0.00142,0.026728 -0.026909,0.037276 -0.1464747,0.054535 -0.081528,0.011772 -0.2127216,0.042597 -0.2915429,0.068508 C 6.9053035,2.2608648 6.9554669,2.2980289 6.7908636,1.8800044 Z"
       style="opacity:1" />
    <path
       class="error"
       id="path497"
       d="M 8.4233853,2.283178 C 8.3753521,2.2324301 8.2832103,2.1640456 8.2186299,2.1312124 8.1540494,2.0983794 8.1017491,2.0655249 8.1024056,2.0582018 8.1028641,2.050851 8.1621626,1.8793399 8.2337451,1.6770037 L 8.3638876,1.309119 8.4223966,1.329493 c 0.1145469,0.03989 0.3474771,0.1724892 0.4488898,0.2555368 0.056653,0.046395 0.1562545,0.1512805 0.2213314,0.2330759 L 9.2109383,1.9668262 8.8755039,2.1693849 C 8.691009,2.2807915 8.533461,2.3727312 8.5253943,2.3736948 8.5173253,2.3746623 8.4714187,2.3339257 8.4233853,2.283178 Z"
       style="opacity:1" />
    <path
       class="error"
       id="path495"
       d="M 5.7462445,2.7404002 C 5.4841842,2.5249071 5.4447188,2.4851057 5.4616932,2.4534213 5.4929152,2.3951423 5.8603097,2.0344349 5.9870807,1.937598 6.0527497,1.887436 6.1092149,1.857412 6.1184823,1.867724 c 0.035322,0.039283 0.4416078,0.633189 0.4416078,0.6455334 0,0.00724 -0.044876,0.047361 -0.099731,0.089149 C 6.4055109,2.6441948 6.2938048,2.7493535 6.212122,2.8360942 6.1304391,2.9228342 6.0606571,2.9930812 6.0570562,2.9921985 6.0534368,2.9913133 5.9135792,2.8780066 5.7462445,2.7404002 Z"
       style="opacity:1" />
    <path
       class="error"
       id="path493"
       d="m 8.9481888,3.6007839 c -0.1978387,-0.04853 -0.36996,-0.091995 -0.382491,-0.096589 -0.016388,-0.00601 -0.012668,-0.052163 0.013261,-0.1645435 0.01982,-0.085905 0.046224,-0.2412038 0.058674,-0.3451098 0.01245,-0.1039046 0.024507,-0.1907816 0.026784,-0.1930596 0.0023,-0.00228 0.1817318,-0.0071 0.3987789,-0.01072 l 0.3946288,-0.00658 v 0.1297656 c 0,0.1959904 -0.1029382,0.7812354 -0.1364376,0.7768321 -0.00736,-9.642e-4 -0.175254,-0.041466 -0.3730988,-0.089996 z"
       style="opacity:1" />
    <path
       class="error"
       id="path491"
       d="M 4.7235832,4.0009138 C 4.620283,3.8196042 4.5289397,3.6670549 4.5206023,3.6619053 4.512262,3.6567583 4.5794505,3.5784418 4.669908,3.4878751 4.7603709,3.397308 4.8613938,3.288219 4.8944127,3.245455 L 4.954447,3.1677018 5.2776526,3.4023977 C 5.4554152,3.53148 5.600858,3.6419824 5.600858,3.6479586 c 0,0.017034 -0.096542,0.1392517 -0.2378533,0.3011132 C 5.2470674,4.0818761 4.9601883,4.3320454 4.925085,4.3309626 4.9175589,4.3307132 4.8268834,4.1822042 4.7235832,4.0009042 Z"
       style="opacity:1" />
    <path
       id="path489"
       d="M 12.360521,3.9970638 12.77512,3.5828853 11.910888,2.7193596 11.046663,1.8558344 11.481231,1.4217056 11.9158,0.98757674 12.7802,1.8509312 13.644595,2.7142854 14.059193,2.3001076 14.473792,1.8859291 v 1.262656 1.2626566 h -1.263935 -1.263935 z"
       style="opacity:1;fill:#000000" />
    <path
       class="error"
       id="path487"
       d="m 3.1542353,4.6066232 c -0.012313,-0.040193 -0.07407,-0.7782955 -0.065813,-0.7865484 0.00406,-0.00406 0.1848956,-0.018276 0.4018741,-0.031613 0.3230495,-0.019857 0.3974183,-0.019532 0.4106172,0.0018 0.019639,0.031747 0.050162,0.7584815 0.032595,0.776034 -0.00687,0.00686 -0.1403816,0.019232 -0.296683,0.027479 -0.1562951,0.00825 -0.3270497,0.020289 -0.3794517,0.026761 -0.068578,0.00847 -0.097471,0.00457 -0.1031379,-0.013921 z"
       style="opacity:1" />
    <path
       class="error"
       id="path485"
       d="M 1.6557303,4.839016 1.343402,4.5880176 1.4187632,4.5033799 C 1.5939361,4.3066432 1.8026271,4.1587384 2.0392009,4.0636465 c 0.079529,-0.031965 0.1475584,-0.054424 0.1511842,-0.049909 0.010691,0.013322 0.2529865,0.7334771 0.2529865,0.7519287 0,0.00927 -0.033723,0.028656 -0.074943,0.043061 -0.1076312,0.037621 -0.2541161,0.1341084 -0.32358,0.2131402 -0.032938,0.037481 -0.063691,0.068146 -0.068341,0.068146 -0.00462,0 -0.1489936,-0.1129493 -0.3207773,-0.2509974 z"
       style="opacity:1" />
    <path
       class="error"
       id="path483"
       d="M 8.8892501,5.2442015 C 8.8200484,5.2096573 8.8108026,5.1854586 8.7350108,5.1140383 8.6255637,5.0108929 8.5786782,4.9468146 8.5070864,4.8025225 8.4468087,4.6810378 8.4155747,4.5911472 8.4127851,4.5311568 l -0.00419,-0.089705 0.3387008,-0.043348 c 0.1862874,-0.023843 0.3618034,-0.047964 0.3900358,-0.053605 0.04535,-0.00906 0.055609,5.98e-5 0.087967,0.078221 0.030754,0.074282 0.254577,0.2739163 0.3636063,0.3484326 C 9.573844,4.8564354 9.1212023,5.1834202 9.03162,5.2562944 8.995371,5.2757304 8.973649,5.3055694 8.8892501,5.2442015 Z"
       style="opacity:1" />
    <path
       class="error"
       id="path481"
       d="M 1.2676041,6.4924784 C 1.1229663,6.2669825 1.0211202,5.9697525 0.99766813,5.7046809 l -0.010091,-0.1140154 0.40496947,-0.00577 0.4049695,-0.00577 0.022154,0.1297657 c 0.012188,0.071372 0.054006,0.1918608 0.092934,0.2677551 0.065751,0.1281821 0.06831,0.1397334 0.035983,0.1625247 -0.01914,0.013494 -0.15974,0.1198439 -0.3124467,0.236333 -0.1527069,0.1164899 -0.2844141,0.2117987 -0.2926829,0.2117987 -0.00827,0 -0.042405,-0.042673 -0.075854,-0.094829 z"
       style="opacity:1" />
    <path
       class="error"
       id="path479"
       d="M 2.6931693,7.5646728 C 2.6601941,7.5423809 2.5096466,7.4563567 2.3586122,7.3735077 2.1093264,7.2367621 2.0859366,7.2192718 2.1049204,7.1838275 2.1647675,7.0721175 2.4688269,6.5548866 2.4835921,6.5396731 2.5000236,6.5227451 2.8891482,6.7262896 3.1185267,6.8717956 L 3.2241421,6.938791 2.9923984,7.2721287 C 2.8649409,7.455464 2.7589574,7.6054061 2.7568855,7.6053339 c -0.00206,-6.24e-5 -0.030741,-0.018369 -0.063716,-0.040661 z"
       style="opacity:1" />
    <path
       class="error"
       id="path477"
       d="M 3.4658644,8.6805935 C 3.1541728,8.5791981 3.1014525,8.5563576 3.1127665,8.5276295 c 0.036532,-0.092745 0.050193,-0.272142 0.029437,-0.386504 -0.012038,-0.06631 -0.017561,-0.1248836 -0.012275,-0.1301628 0.00748,-0.00747 0.7476831,-0.2457861 0.7634093,-0.2457861 0.00206,0 0.019652,0.075593 0.03906,0.1679824 0.060129,0.2862072 0.00869,0.8745237 -0.075928,0.8683842 C 3.8431574,8.8005791 3.667385,8.7461495 3.4658644,8.6805935 Z"
       style="opacity:1" />
    <path
       class="error"
       id="path475"
       d="m 2.8555427,10.278132 c -0.037768,-0.188628 0.00716,-0.829455 0.059566,-0.8495418 0.026005,-0.00997 0.7625667,0.1020182 0.7790106,0.118443 0.00462,0.00464 -6.24e-4,0.056031 -0.011639,0.1142075 -0.011047,0.058177 -0.020082,0.2076919 -0.020082,0.3322556 0,0.2185237 -0.00156,0.2268397 -0.044963,0.2367237 -0.063135,0.01438 -0.6924603,0.110299 -0.7237005,0.110299 -0.014135,0 -0.031321,-0.02808 -0.038193,-0.0624 z"
       style="opacity:1" />
    <path
       class="error"
       id="path473"
       d="M 5.3205688,10.80468 C 5.2513106,10.609783 5.1910957,10.440242 5.1867585,10.427924 5.1750573,10.394672 5.96351,10.116441 5.9904318,10.144328 c 0.00922,0.0095 0.1910116,0.781024 0.185033,0.785212 -0.00281,0.0019 -0.050024,0.01533 -0.1049851,0.02975 -0.054955,0.01441 -0.2089655,0.06524 -0.3422517,0.112977 -0.1332799,0.04773 -0.2511955,0.08677 -0.2620292,0.08677 -0.010833,0 -0.076373,-0.159461 -0.14563,-0.354359 z"
       style="opacity:1" />
    <path
       class="error"
       id="path471"
       d="m 4.0275722,11.418455 c -0.1573998,-0.0171 -0.3951843,-0.08263 -0.4489469,-0.123752 -0.03081,-0.02355 -0.017916,-0.05568 0.1448812,-0.360953 0.098283,-0.1843 0.1786987,-0.344723 0.1786987,-0.356496 0,-0.01225 0.014965,-0.01559 0.034972,-0.0078 0.08899,0.03453 0.2669529,0.05342 0.3898485,0.04139 0.1032565,-0.01011 0.1367059,-0.0071 0.1420978,0.01295 0.00387,0.01439 0.032208,0.183394 0.062967,0.375547 0.030754,0.192152 0.059697,0.35994 0.064316,0.372863 0.014728,0.0412 -0.3455531,0.0705 -0.5688345,0.04626 z"
       style="opacity:1" />
    <path
       id="path469"
       d="m 12.246344,14.551995 c -0.461053,-0.0723 -0.849267,-0.260192 -1.668093,-0.807327 -0.444747,-0.297177 -0.535634,-0.348814 -0.6994305,-0.397363 -0.2446743,-0.07251 -0.5100484,-0.02618 -1.1411262,0.199276 -0.7249798,0.259 -1.1764228,0.337737 -1.5221382,0.265479 -0.3131207,-0.06544 -0.5991386,-0.353413 -0.6742377,-0.678834 -0.033761,-0.146299 -0.024775,-0.531866 0.018259,-0.783327 0.03554,-0.207707 0.1072755,-0.510485 0.2203235,-0.929987 0.050861,-0.452309 0.093134,-0.770377 -0.24362,-1.091794 C 6.3677807,10.152829 6.2383761,10.063817 5.7781651,9.8066578 5.3186655,9.5498991 5.2332383,9.4932731 5.0909782,9.351155 4.8624922,9.1229017 4.7233836,8.8492734 4.679974,8.5426996 4.6043384,8.00856 4.950584,7.4594183 5.5009339,7.2406722 5.8371197,7.1070493 6.2174015,7.0439442 6.969765,6.9969292 7.2445436,6.9797581 7.5286083,6.9528828 7.6010176,6.9372055 8.0400231,6.8421547 8.232757,6.6721063 8.7697771,5.9060127 9.1519809,5.3607756 9.4636413,5.058696 9.8914139,4.8188526 10.15254,4.6776143 10.214548,4.6768995 10.410486,4.5908238 c 0.422825,-0.1353047 0.838372,-0.1623223 1.115652,-0.072535 0.300927,0.097445 0.541208,0.3030129 0.677552,0.5796703 0.0914,0.1854607 0.114115,0.2957905 0.113366,0.5505033 -7.48e-4,0.2544884 -0.03213,0.4421043 -0.154217,0.9219534 -0.117123,0.4603294 -0.127588,0.6589759 -0.04415,0.8378064 0.06288,0.1347774 0.173932,0.2620992 0.285083,0.3268495 0.231419,0.1348141 0.634423,0.1754199 1.214164,0.1223357 0.585373,-0.053599 0.791587,-0.041255 1.008965,0.060399 0.168582,0.078837 0.299397,0.2522267 0.359301,0.4762333 0.03676,0.1375043 0.03444,0.5349968 -0.0042,0.7245329 -0.100467,0.4922845 -0.338989,0.9479874 -0.683038,1.3049524 -0.20197,0.209553 -0.514197,0.450832 -0.761861,0.588735 -0.210869,0.117416 -0.365691,0.258715 -0.431867,0.394144 -0.123593,0.252919 -0.08515,0.476291 0.218583,1.269893 0.168109,0.439229 0.210444,0.612372 0.210626,0.861335 0,0.213238 -0.04548,0.399994 -0.135265,0.553464 -0.112024,0.191495 -0.339768,0.361457 -0.584024,0.435843 -0.116823,0.03558 -0.417294,0.04881 -0.568765,0.02506 z"
       style="opacity:1;fill:#000000" />
    <path
       id="path7351"
       d="m 2.6730809,14.592935 0.4195036,-0.419439 -0.8641631,-0.863464 -0.8641633,-0.863463 0.4345684,-0.434131 0.4345687,-0.434129 0.8643379,0.863292 0.8643318,0.863293 0.4198656,-0.419082 0.4198657,-0.419082 -0.00512,1.26768 -0.00512,1.26768 -1.2689642,0.0052 -1.2689579,0.0052 z"
       style="opacity:1;fill:#000000" />
  </g>
</svg>
