<?xml version="1.0" encoding="UTF-8" standalone="no"?>
<svg
   xmlns:dc="http://purl.org/dc/elements/1.1/"
   xmlns:cc="http://creativecommons.org/ns#"
   xmlns:rdf="http://www.w3.org/1999/02/22-rdf-syntax-ns#"
   xmlns:svg="http://www.w3.org/2000/svg"
   xmlns="http://www.w3.org/2000/svg"
   xmlns:sodipodi="http://sodipodi.sourceforge.net/DTD/sodipodi-0.dtd"
   xmlns:inkscape="http://www.inkscape.org/namespaces/inkscape"
   version="1.1"
   id="svg1"
   width="16"
   height="16"
   viewBox="0 0 16 16"
   sodipodi:docname="frmt-text-direction-horizontal-symbolic.svg"
   inkscape:version="1.1-dev (6039630, 2019-12-20)">
  <style
     id="s0">
.base { fill:#000000; }
.success { fill:#009909; }
.warning { fill:#FF1990; }
.error { fill:#00AAFF; }
.dark { }
</style>
  <style
     id="s2">
@import '../../highlights.css';
</style>
  <metadata
     id="metadata915">
    <rdf:RDF>
      <cc:Work
         rdf:about="">
        <dc:format>image/svg+xml</dc:format>
        <dc:type
           rdf:resource="http://purl.org/dc/dcmitype/StillImage" />
        <dc:title />
      </cc:Work>
    </rdf:RDF>
  </metadata>
  <defs
     id="defs913" />
  <sodipodi:namedview
     objecttolerance="10"
     gridtolerance="10"
     guidetolerance="10"
     id="namedview"
     showgrid="true"
     inkscape:zoom="21.337261"
     inkscape:cx="11.838902"
     inkscape:cy="11.24643"
     inkscape:window-width="1296"
     inkscape:window-height="890"
     inkscape:window-x="65"
     inkscape:window-y="-6"
     inkscape:window-maximized="1"
     inkscape:current-layer="svg1"
     inkscape:snap-global="false">
    <inkscape:grid
       type="xygrid"
       id="grid" />
  </sodipodi:namedview>
  <g
     transform="matrix(0.999375,0,0,1,-558.65084,-805.36218)"
     inkscape:label="00188"
     id="frmt-text-direction-vertical">
    <path
       inkscape:connector-curvature="0"
       id="rect15925"
       d="m 559,805.36218 h 16 v 16 h -16 z"
       style="opacity:0;fill:none" />
  </g>
  <path
     sodipodi:nodetypes="cccccccc"
     inkscape:connector-curvature="0"
     id="path996"
     d="M 1.0000001,8 V 9 H 12.999999 v 1 l 2,-1.58143 -2,-1.41857 v 1 z"
     style="opacity:1;fill:#009909;stroke-width:0.581489"
     class="success" />
  <path
     sodipodi:nodetypes="ccccccccccccc"
     style="fill:#000000;stroke-width:0.437501"
     inkscape:connector-curvature="0"
     id="path1713"
     d="m 2.6778801,5.17803 h 2.100805 L 5.0909171,6 H 6.4545459 L 4.3196601,1 h -1.190852 l -2.128808,5 h 1.363639 z m 1.032352,-2.77684 0.612277,1.78062 h -1.188443 z"
     class="base" />
  <path
     class="success"
     style="opacity:1;fill:#009909;stroke-width:0.581489"
     d="m 7.9865628,3 v 1 h 5.0134362 v 1 l 2,-1.58143 -2,-1.41857 v 1 z"
     id="path4148"
     inkscape:connector-curvature="0"
     sodipodi:nodetypes="cccccccc" />
  <path
     class="success"
     style="opacity:1;fill:#009909;stroke-width:0.581489"
     d="m 1.0000001,13 v 1 H 12.999999 v 1 l 2,-1.58143 -2,-1.41857 v 1 z"
     id="path4146"
     inkscape:connector-curvature="0"
     sodipodi:nodetypes="cccccccc" />
</svg>
