<?xml version="1.0" encoding="UTF-8" standalone="no"?>
<svg
   xmlns:dc="http://purl.org/dc/elements/1.1/"
   xmlns:cc="http://creativecommons.org/ns#"
   xmlns:rdf="http://www.w3.org/1999/02/22-rdf-syntax-ns#"
   xmlns:svg="http://www.w3.org/2000/svg"
   xmlns="http://www.w3.org/2000/svg"
   xmlns:sodipodi="http://sodipodi.sourceforge.net/DTD/sodipodi-0.dtd"
   xmlns:inkscape="http://www.inkscape.org/namespaces/inkscape"
   inkscape:version="1.1-dev (6039630, 2019-12-20)"
   sodipodi:docname="frmt-text-direction-vertical-lr-symbolic.svg"
   viewBox="0 0 16 16"
   height="16"
   width="16"
   id="svg1"
   version="1.1">
  <style
     id="s0">
.base { fill:#000000; }
.success { fill:#009909; }
.warning { fill:#FF1990; }
.error { fill:#00AAFF; }
.dark { }
</style>
  <style
     id="s2">
@import '../../highlights.css';
</style>
  <metadata
     id="metadata915">
    <rdf:RDF>
      <cc:Work
         rdf:about="">
        <dc:format>image/svg+xml</dc:format>
        <dc:type
           rdf:resource="http://purl.org/dc/dcmitype/StillImage" />
        <dc:title />
      </cc:Work>
    </rdf:RDF>
  </metadata>
  <defs
     id="defs913" />
  <sodipodi:namedview
     inkscape:snap-global="false"
     inkscape:current-layer="svg1"
     inkscape:window-maximized="1"
     inkscape:window-y="-6"
     inkscape:window-x="65"
     inkscape:window-height="890"
     inkscape:window-width="1296"
     inkscape:cy="16.420297"
     inkscape:cx="10.473085"
     inkscape:zoom="15.839192"
     showgrid="true"
     id="namedview"
     guidetolerance="10"
     gridtolerance="10"
     objecttolerance="10">
    <inkscape:grid
       id="grid"
       type="xygrid" />
  </sodipodi:namedview>
  <g
     id="frmt-text-direction-vertical"
     inkscape:label="00188"
     transform="matrix(0.999375,0,0,1,-558.65084,-805.36218)">
    <path
       style="opacity:0;fill:none"
       d="m 559,805.36218 h 16 v 16 h -16 z"
       id="rect15925"
       inkscape:connector-curvature="0" />
  </g>
  <path
     class="success"
     style="opacity:1;fill:#009909;stroke-width:0.581489"
     d="m 8.091373,1.0380782 h 1 V 13 h 1 L 8.509949,15 7.091373,13 h 1 z"
     id="path996"
     inkscape:connector-curvature="0"
     sodipodi:nodetypes="cccccccc" />
  <path
     class="base"
     d="M 4.7766607,5.1780236 H 2.6758627 L 2.3636357,6 H 1 L 3.1348847,1 h 1.19086 l 2.128801,5 H 5.0909087 Z M 3.7443167,2.4011927 3.1320347,4.1818182 h 1.188452 z"
     id="path1713"
     inkscape:connector-curvature="0"
     style="fill:#000000;stroke-width:0.437501"
     sodipodi:nodetypes="ccccccccccccc" />
  <path
     sodipodi:nodetypes="cccccccc"
     inkscape:connector-curvature="0"
     id="path4148"
     d="m 3.091373,7.9865619 h 1 V 13 h 1 L 3.509949,15 2.091373,13 h 1 z"
     style="opacity:1;fill:#009909;stroke-width:0.581489"
     class="success" />
  <path
     sodipodi:nodetypes="cccccccc"
     inkscape:connector-curvature="0"
     id="path4146"
     d="m 13.091373,1.038078 h 1 V 13 h 1 l -1.581424,2 -1.418576,-2 h 1 z"
     style="opacity:1;fill:#009909;stroke-width:0.581489"
     class="success" />
</svg>
