<?xml version='1.0' encoding='UTF-8'?>
<!-- Created with Inkscape (http://www.inkscape.org/) and export_objects.py -->
<svg xmlns:cc="http://creativecommons.org/ns#" xmlns:dc="http://purl.org/dc/elements/1.1/" xmlns:inkscape="http://www.inkscape.org/namespaces/inkscape" xmlns:rdf="http://www.w3.org/1999/02/22-rdf-syntax-ns#" xmlns:sodipodi="http://sodipodi.sourceforge.net/DTD/sodipodi-0.dtd" xmlns:xlink="http://www.w3.org/1999/xlink" xmlns="http://www.w3.org/2000/svg" version="1.1" id="svg1" width="16" height="16" viewBox="0 0 16 16" sodipodi:docname="grid-rectangular-symbolic.svg">
<style id="s0">
   .base    { fill: #000000; }
   .success { fill: #009909; }
   .warning { fill: #FF1990; }
   .error   { fill: #00AAFF; }
   .dark    {  }
  </style>
  <style id="s2"> 
     @import '../../highlights.css'; 
  </style>
  
<sodipodi:namedview objecttolerance="10" gridtolerance="10" guidetolerance="10" id="namedview" showgrid="true" inkscape:zoom="0.6002936" inkscape:cx="732.67439" inkscape:cy="-567.94603" inkscape:window-width="1920" inkscape:window-height="1016" inkscape:window-x="0" inkscape:window-y="27" inkscape:window-maximized="1" inkscape:current-layer="layer1">
    <inkscape:grid type="xygrid" id="grid"/>
  </sodipodi:namedview>
  <g transform="translate(-195,-931.3622)" inkscape:label="00104" id="grid-rectangular">
      <g transform="translate(120,204)" id="show-grid-0" inkscape:label="#g17424">
        <path inkscape:connector-curvature="0" id="rect17376-9" d="m 75,215 h 16 v 16 H 75 Z" style="opacity:0;fill:none" transform="translate(0,512.3622)"/>
        <path inkscape:connector-curvature="0" id="rect17397-4" d="m 75,215 h 1 v 16 h -1 z" style="opacity:1" transform="translate(0,512.3622)"/>
        <path inkscape:connector-curvature="0" id="rect17399-6" d="m 75,215 h 16 v 1 H 75 Z" style="opacity:1" transform="translate(0,512.3622)"/>
        <path inkscape:connector-curvature="0" id="rect17401-5" d="m 90,215 h 1 v 16 h -1 z" style="opacity:1" transform="translate(0,512.3622)"/>
        <path inkscape:connector-curvature="0" id="rect17403-6" d="m 75,230 h 16 v 1 H 75 Z" style="opacity:1" transform="translate(0,512.3622)"/>
        <path inkscape:connector-curvature="0" id="rect17408-6" d="m 75,218 h 16 v 1 H 75 Z" style="opacity:1" transform="translate(0,512.3622)"/>
        <path inkscape:connector-curvature="0" id="rect17410-1" d="m 75,221 h 16 v 1 H 75 Z" style="opacity:1" transform="translate(0,512.3622)"/>
        <path inkscape:connector-curvature="0" id="rect17412-5" d="m 75,224 h 16 v 1 H 75 Z" style="opacity:1" transform="translate(0,512.3622)"/>
        <path inkscape:connector-curvature="0" id="rect17414-5" d="m 75,739.36218 h 16 v 1 H 75 Z" style="opacity:1"/>
        <path inkscape:connector-curvature="0" id="rect17416-7" d="m 78,215 h 1 v 16 h -1 z" style="opacity:1" transform="translate(0,512.3622)"/>
        <path inkscape:connector-curvature="0" id="rect17418-4" d="m 81,215 h 1 v 16 h -1 z" style="opacity:1" transform="translate(0,512.3622)"/>
        <path inkscape:connector-curvature="0" id="rect17420-6" d="m 84,215 h 1 v 16 h -1 z" style="opacity:1" transform="translate(0,512.3622)"/>
        <path inkscape:connector-curvature="0" id="rect17422-4" d="m 87,215 h 1 v 16 h -1 z" style="opacity:1" transform="translate(0,512.3622)"/>
      </g>
    </g>
    </svg>
