<?xml version="1.0" encoding="UTF-8" standalone="no"?>
<svg
   xmlns:dc="http://purl.org/dc/elements/1.1/"
   xmlns:cc="http://creativecommons.org/ns#"
   xmlns:rdf="http://www.w3.org/1999/02/22-rdf-syntax-ns#"
   xmlns:svg="http://www.w3.org/2000/svg"
   xmlns="http://www.w3.org/2000/svg"
   xmlns:sodipodi="http://sodipodi.sourceforge.net/DTD/sodipodi-0.dtd"
   xmlns:inkscape="http://www.inkscape.org/namespaces/inkscape"
   inkscape:version="1.0beta2 (7cf281c, 2019-12-21)"
   sodipodi:docname="help-contents-symbolic.svg"
   viewBox="0 0 16 16"
   height="16"
   width="16"
   id="svg1"
   version="1.1">
  <metadata
     id="metadata6847">
    <rdf:RDF>
      <cc:Work
         rdf:about="">
        <dc:format>image/svg+xml</dc:format>
        <dc:type
           rdf:resource="http://purl.org/dc/dcmitype/StillImage" />
      </cc:Work>
    </rdf:RDF>
  </metadata>
  <defs
     id="defs6845" />
  <style
     id="s0">
.base { fill:#000000; }
.success { fill:#009909; }
.warning { fill:#FF1990; }
.error { fill:#00AAFF; }
.dark { }
</style>
  <style
     id="s2">
@import '../../highlights.css';
</style>
  <sodipodi:namedview
     inkscape:current-layer="svg1"
     inkscape:window-maximized="1"
     inkscape:window-y="-6"
     inkscape:window-x="65"
     inkscape:window-height="890"
     inkscape:window-width="1296"
     inkscape:cy="8"
     inkscape:cx="8"
     inkscape:zoom="41.125"
     showgrid="true"
     id="namedview"
     guidetolerance="10"
     gridtolerance="10"
     objecttolerance="10">
    <inkscape:grid
       id="grid"
       type="xygrid" />
  </sodipodi:namedview>
  <g
     id="help-contents"
     inkscape:label="00100"
     transform="translate(-225.00001,-547.3622)">
    <g
       inkscape:label="fedora-release-notes"
       id="g6848"
       transform="translate(-58.0002,352.3615)">
      <path
         style="opacity:0;fill:none"
         d="m 283.00021,195.0007 h 16 v 16 h -16 z"
         id="rect5524"
         inkscape:connector-curvature="0" />
      <path
         style="opacity:0.5"
         d="m 286.0002,200.0007 h 10 c -1.3521,-0.5314 -1.2574,-2.4326 0,-3 h -10 z"
         id="path6826"
         inkscape:connector-curvature="0" />
      <path
         style="opacity:1"
         d="m 286.5627,196.0007 c -0.8569,0 -1.5625,0.7056 -1.5625,1.5625 v 9.8437 c 0,1.6083 1.4868,2.5283 2.3437,2.5313 l 9.6563,0.0312 v -9.9688 l -9.4375,-0.0312 c -1.9535,0.0312 -2.2202,-2.9375 0.0156,-2.9687 h 9.4219 c 0,0 0.125,-1.0312 -1,-1 z"
         id="path6822"
         inkscape:connector-curvature="0" />
    </g>
  </g>
</svg>
