<?xml version="1.0" encoding="UTF-8" standalone="no"?>
<svg
   xmlns:dc="http://purl.org/dc/elements/1.1/"
   xmlns:cc="http://creativecommons.org/ns#"
   xmlns:rdf="http://www.w3.org/1999/02/22-rdf-syntax-ns#"
   xmlns:svg="http://www.w3.org/2000/svg"
   xmlns="http://www.w3.org/2000/svg"
   xmlns:sodipodi="http://sodipodi.sourceforge.net/DTD/sodipodi-0.dtd"
   xmlns:inkscape="http://www.inkscape.org/namespaces/inkscape"
   inkscape:version="1.1-dev (6039630, 2019-12-20)"
   sodipodi:docname="object-rotate-right-symbolic.svg"
   viewBox="0 0 16 16"
   height="16"
   width="16"
   id="svg1"
   version="1.1">
  <metadata
     id="metadata7147">
    <rdf:RDF>
      <cc:Work
         rdf:about="">
        <dc:format>image/svg+xml</dc:format>
        <dc:type
           rdf:resource="http://purl.org/dc/dcmitype/StillImage" />
      </cc:Work>
    </rdf:RDF>
  </metadata>
  <defs
     id="defs7145">
    <inkscape:path-effect
       effect="join_type"
       id="path-effect7712"
       is_visible="true"
       lpeversion="1"
       linecap_type="butt"
       line_width="1.8897638"
       linejoin_type="extrp_arc"
       miter_limit="100"
       attempt_force_join="true" />
    <inkscape:path-effect
       effect="join_type"
       id="path-effect7712-0"
       is_visible="true"
       lpeversion="1"
       linecap_type="butt"
       line_width="1.8897638"
       linejoin_type="extrp_arc"
       miter_limit="100"
       attempt_force_join="true" />
  </defs>
  <style
     id="s0">.base { fill:#000000; }
.success { fill:#009909; }
.warning { fill:#FF1990; }
.error { fill:#00AAFF; }
.dark {  }
</style>
  <style
     id="s2">
@import '../../highlights.css';
</style>
  <sodipodi:namedview
     inkscape:current-layer="object-rotate-right"
     inkscape:window-maximized="1"
     inkscape:window-y="-6"
     inkscape:window-x="65"
     inkscape:window-height="890"
     inkscape:window-width="1296"
     inkscape:cy="8"
     inkscape:cx="8"
     inkscape:zoom="41.125"
     showgrid="true"
     id="namedview"
     guidetolerance="10"
     gridtolerance="10"
     objecttolerance="10">
    <inkscape:grid
       id="grid"
       type="xygrid" />
  </sodipodi:namedview>
  <g
     id="object-rotate-right"
     inkscape:label="00064"
     transform="translate(-135,-707.36218)">
    <path
       style="opacity:0;fill:none"
       d="m 135,707.36218 h 16 v 16 h -16 z"
       id="rect12247"
       inkscape:connector-curvature="0" />
    <path
       class="success"
       style="opacity:1"
       d="m 147,716.36218 3,-3 h -6 z"
       id="path15904"
       inkscape:connector-curvature="0" />
    <path
       transform="translate(0,512.3622)"
       style="opacity:0.5"
       d="m 135,195 h 5 v 10 h -5 z"
       id="rect18393"
       inkscape:connector-curvature="0" />
    <path
       transform="rotate(90)"
       style="opacity:1"
       d="m 718.36218,-151 h 5 v 10 h -5 z"
       id="rect18395"
       inkscape:connector-curvature="0" />
    <path
       transform="translate(-0.0551181)"
       style="opacity:1;fill:#009909;fill-rule:nonzero;stroke:none;stroke-width:1.88976;stroke-linecap:butt"
       d="m 147.94488,713.36218 c 0,-2.61495 -2.46817,-4.94488 -5.88976,-4.94488 v 1.88976 c 2.57677,0 4,1.67247 4,3.05512 z"
       id="path7710"
       inkscape:connector-curvature="0"
       inkscape:path-effect="#path-effect7712-0"
       inkscape:original-d="m 147,713.36218 c 0,-2 -1.94488,-4 -4.94488,-4"
       class="success"
       sodipodi:nodetypes="cc" />
  </g>
</svg>
