<?xml version="1.0" encoding="UTF-8" standalone="no"?>
<svg
   xmlns:dc="http://purl.org/dc/elements/1.1/"
   xmlns:cc="http://creativecommons.org/ns#"
   xmlns:rdf="http://www.w3.org/1999/02/22-rdf-syntax-ns#"
   xmlns:svg="http://www.w3.org/2000/svg"
   xmlns="http://www.w3.org/2000/svg"
   xmlns:xlink="http://www.w3.org/1999/xlink"
   xmlns:sodipodi="http://sodipodi.sourceforge.net/DTD/sodipodi-0.dtd"
   xmlns:inkscape="http://www.inkscape.org/namespaces/inkscape"
   inkscape:version="1.0beta2 (7cf281c, 2019-12-21)"
   sodipodi:docname="object-tweak-randomize-symbolic.svg"
   viewBox="0 0 16 16"
   height="16"
   width="16"
   id="svg1"
   version="1.1">
  <metadata
     id="metadata1999">
    <rdf:RDF>
      <cc:Work
         rdf:about="">
        <dc:format>image/svg+xml</dc:format>
        <dc:type
           rdf:resource="http://purl.org/dc/dcmitype/StillImage" />
      </cc:Work>
    </rdf:RDF>
  </metadata>
  <defs
     id="defs1997" />
  <style
     id="s0">
.base { fill:#000000; }
.success { fill:#009909; }
.warning { fill:#FF1990; }
.error { fill:#00AAFF; }
.dark { }
</style>
  <style
     id="s2">
@import '../../highlights.css';
</style>
  <sodipodi:namedview
     inkscape:current-layer="svg1"
     inkscape:window-maximized="1"
     inkscape:window-y="-6"
     inkscape:window-x="65"
     inkscape:window-height="890"
     inkscape:window-width="1296"
     inkscape:cy="8"
     inkscape:cx="8"
     inkscape:zoom="41.125"
     showgrid="true"
     id="namedview"
     guidetolerance="10"
     gridtolerance="10"
     objecttolerance="10">
    <inkscape:grid
       id="grid"
       type="xygrid" />
  </sodipodi:namedview>
  <g
     inkscape:label="00116"
     id="object-tweak-randomize"
     transform="translate(-255,-727.36218)">
    <path
       style="opacity:0;fill:none"
       d="m 255,727.36218 h 16 v 16 h -16 z"
       id="rect16247"
       inkscape:connector-curvature="0" />
    <g
       transform="translate(-116.7986,590.7307)"
       id="g6154">
      <path
         transform="matrix(1.20571,0,0,1.20571,-78.42654,-27.79061)"
         d="m 376.20595,137.9821 a 1.111868,1.111868 0 0 1 -1.11186,1.11187 1.111868,1.111868 0 0 1 -1.11187,-1.11187 1.111868,1.111868 0 0 1 1.11187,-1.11187 1.111868,1.111868 0 0 1 1.11186,1.11187 z"
         id="path5084-3"
         inkscape:connector-curvature="0" />
      <use
         height="1250"
         width="1250"
         id="use5086-7"
         inkscape:tiled-clone-of="#path5011"
         y="0"
         x="0"
         transform="translate(8.561625,0.49145)"
         xlink:href="#path5084-3" />
      <use
         height="1250"
         width="1250"
         id="use5088-6"
         transform="translate(11.84313,2.65475)"
         inkscape:tiled-clone-of="#path5011"
         y="0"
         x="0"
         xlink:href="#path5084-3" />
      <use
         height="1250"
         width="1250"
         id="use5090-6"
         transform="translate(11.465,6.015863)"
         inkscape:tiled-clone-of="#path5011"
         y="0"
         x="0"
         xlink:href="#path5084-3" />
      <use
         height="1250"
         width="1250"
         id="use5092-8"
         transform="translate(2.800431,0.1644349)"
         inkscape:tiled-clone-of="#path5011"
         y="0"
         x="0"
         xlink:href="#path5084-3" />
      <use
         height="1250"
         width="1250"
         id="use5094-4"
         transform="translate(11.94058,-0.0096427)"
         inkscape:tiled-clone-of="#path5011"
         y="0"
         x="0"
         xlink:href="#path5084-3" />
      <use
         height="1250"
         width="1250"
         id="use5096-4"
         transform="translate(-0.1240991,6.118019)"
         inkscape:tiled-clone-of="#path5011"
         y="0"
         x="0"
         xlink:href="#path5084-3" />
      <use
         height="1250"
         width="1250"
         id="use5098-4"
         transform="translate(0.2602591,9.383794)"
         inkscape:tiled-clone-of="#path5011"
         y="0"
         x="0"
         xlink:href="#path5084-3" />
      <use
         height="1250"
         width="1250"
         id="use5100-0"
         transform="translate(6.0991,-0.2204626)"
         inkscape:tiled-clone-of="#path5011"
         y="0"
         x="0"
         xlink:href="#path5084-3" />
      <use
         height="1250"
         width="1250"
         id="use5103-8"
         transform="translate(0.4371078,2.794418)"
         inkscape:tiled-clone-of="#path5011"
         y="0"
         x="0"
         xlink:href="#path5084-3" />
      <use
         height="1250"
         width="1250"
         id="use5106-4"
         transform="translate(2.823264,2.99384)"
         inkscape:tiled-clone-of="#path5011"
         y="0"
         x="0"
         xlink:href="#path5084-3" />
      <use
         height="1250"
         width="1250"
         id="use5108-9"
         transform="translate(2.2685,8.914454)"
         inkscape:tiled-clone-of="#path5011"
         y="0"
         x="0"
         xlink:href="#path5084-3" />
      <use
         height="1250"
         width="1250"
         id="use5110-6"
         transform="translate(7.821966,3.036785)"
         inkscape:tiled-clone-of="#path5011"
         y="0"
         x="0"
         xlink:href="#path5084-3" />
      <use
         height="1250"
         width="1250"
         id="use5112-0"
         transform="translate(8.506131,3.395216)"
         inkscape:tiled-clone-of="#path5011"
         y="0"
         x="0"
         xlink:href="#path5084-3" />
      <use
         height="1250"
         width="1250"
         id="use5114-7"
         transform="translate(2.865657,4.495371)"
         inkscape:tiled-clone-of="#path5011"
         y="0"
         x="0"
         xlink:href="#path5084-3" />
      <use
         height="1250"
         width="1250"
         id="use5116-9"
         transform="translate(5.940444,8.422506)"
         inkscape:tiled-clone-of="#path5011"
         y="0"
         x="0"
         xlink:href="#path5084-3" />
      <use
         height="1250"
         width="1250"
         id="use5118-4"
         transform="translate(6.998359,5.075075)"
         inkscape:tiled-clone-of="#path5011"
         y="0"
         x="0"
         xlink:href="#path5084-3" />
      <use
         height="1250"
         width="1250"
         id="use5120-9"
         transform="translate(7.573388,6.436901)"
         inkscape:tiled-clone-of="#path5011"
         y="0"
         x="0"
         xlink:href="#path5084-3" />
      <use
         height="1250"
         width="1250"
         id="use5122-7"
         transform="translate(8.395772,9.33012)"
         inkscape:tiled-clone-of="#path5011"
         y="0"
         x="0"
         xlink:href="#path5084-3" />
      <use
         height="1250"
         width="1250"
         id="use5124-1"
         transform="translate(8.885973,11.77538)"
         inkscape:tiled-clone-of="#path5011"
         y="0"
         x="0"
         xlink:href="#path5084-3" />
      <use
         x="0"
         y="0"
         inkscape:tiled-clone-of="#path5011"
         transform="translate(11.49834,9.064573)"
         id="use5126-2"
         width="1250"
         height="1250"
         xlink:href="#path5084-3" />
      <use
         x="0"
         y="0"
         inkscape:tiled-clone-of="#path5011"
         transform="translate(-0.009413,12.10337)"
         id="use5128-6"
         width="1250"
         height="1250"
         xlink:href="#path5084-3" />
      <use
         x="0"
         y="0"
         inkscape:tiled-clone-of="#path5011"
         transform="translate(3.166048,12.23381)"
         id="use5130-6"
         width="1250"
         height="1250"
         xlink:href="#path5084-3" />
      <use
         x="0"
         y="0"
         inkscape:tiled-clone-of="#path5011"
         transform="translate(5.944623,11.84999)"
         id="use5132-7"
         width="1250"
         height="1250"
         xlink:href="#path5084-3" />
      <use
         x="0"
         y="0"
         inkscape:tiled-clone-of="#path5011"
         transform="translate(12.07179,12.10332)"
         id="use5134-4"
         width="1250"
         height="1250"
         xlink:href="#path5084-3" />
    </g>
  </g>
</svg>
