<?xml version="1.0" encoding="UTF-8" standalone="no"?>
<svg
   xmlns:dc="http://purl.org/dc/elements/1.1/"
   xmlns:cc="http://creativecommons.org/ns#"
   xmlns:rdf="http://www.w3.org/1999/02/22-rdf-syntax-ns#"
   xmlns:svg="http://www.w3.org/2000/svg"
   xmlns="http://www.w3.org/2000/svg"
   xmlns:sodipodi="http://sodipodi.sourceforge.net/DTD/sodipodi-0.dtd"
   xmlns:inkscape="http://www.inkscape.org/namespaces/inkscape"
   inkscape:version="1.0beta2 (7cf281c, 2019-12-21)"
   sodipodi:docname="paint-order-msf-symbolic.svg"
   viewBox="0 0 16 16"
   height="16"
   width="16"
   id="svg1"
   version="1.1">
  <metadata
     id="metadata14430">
    <rdf:RDF>
      <cc:Work
         rdf:about="">
        <dc:format>image/svg+xml</dc:format>
        <dc:type
           rdf:resource="http://purl.org/dc/dcmitype/StillImage" />
      </cc:Work>
    </rdf:RDF>
  </metadata>
  <defs
     id="defs14428" />
  <style
     id="s0">.base { fill:#000000; }
.success { fill:#009909; }
.warning { fill:#FF1990; }
.error { fill:#00AAFF; }
.dark {  }
</style>
  <style
     id="s2">
@import '../../highlights.css';
</style>
  <sodipodi:namedview
     inkscape:current-layer="svg1"
     inkscape:window-maximized="1"
     inkscape:window-y="-6"
     inkscape:window-x="65"
     inkscape:window-height="890"
     inkscape:window-width="1296"
     inkscape:cy="8"
     inkscape:cx="8"
     inkscape:zoom="41.125"
     showgrid="true"
     id="namedview"
     guidetolerance="10"
     gridtolerance="10"
     objecttolerance="10">
    <inkscape:grid
       id="grid"
       type="xygrid" />
  </sodipodi:namedview>
  <g
     inkscape:label="#paint-order-msf"
     id="paint-order-msf">
    <path
       d="M 0,0 H 16 V 16 H 0 Z"
       id="rect22048"
       style="opacity:0;fill:none" />
    <path
       class="error"
       id="path14419"
       d="m 6.5566406,0.51367188 c -3.3288222,1e-8 -6.01757809,2.69070902 -6.0175781,6.01953122 1.2e-7,2.373717 1.369611,4.4163519 3.3613281,5.3964849 V 4.3378906 H 12.15625 C 11.280336,2.0986739 9.109794,0.513672 6.5566406,0.51367188 Z"
       style="opacity:1" />
    <path
       id="path14421"
       d="M 3.9003906,4.3378906 V 15.990234 H 7.6796875 V 8.1171875 H 16 V 4.3378906 Z"
       style="opacity:1" />
    <path
       class="warning"
       id="path14423"
       d="M 7.6796875,15.992577 V 8.1171875 H 16.00066 L 16.000122,16 Z"
       style="opacity:1" />
  </g>
</svg>
