<?xml version="1.0" encoding="UTF-8" standalone="no"?>
<svg
   xmlns:dc="http://purl.org/dc/elements/1.1/"
   xmlns:cc="http://creativecommons.org/ns#"
   xmlns:rdf="http://www.w3.org/1999/02/22-rdf-syntax-ns#"
   xmlns:svg="http://www.w3.org/2000/svg"
   xmlns="http://www.w3.org/2000/svg"
   xmlns:sodipodi="http://sodipodi.sourceforge.net/DTD/sodipodi-0.dtd"
   xmlns:inkscape="http://www.inkscape.org/namespaces/inkscape"
   version="1.1"
   id="svg1"
   width="16"
   height="16"
   viewBox="0 0 16 16"
   sodipodi:docname="path-exclusion-symbolic.svg"
   inkscape:version="1.0beta2 (7cf281c, 2019-12-21)">
  <metadata
     id="metadata6808">
    <rdf:RDF>
      <cc:Work
         rdf:about="">
        <dc:format>image/svg+xml</dc:format>
        <dc:type
           rdf:resource="http://purl.org/dc/dcmitype/StillImage" />
      </cc:Work>
    </rdf:RDF>
  </metadata>
  <defs
     id="defs6806" />
  <style
     id="s0">.base { fill:#000000; }
.success { fill:#009909; }
.warning { fill:#FF1990; }
.error { fill:#00AAFF; }
.dark {  }
</style>
  <style
     id="s2">
@import '../../highlights.css';
</style>
  <sodipodi:namedview
     objecttolerance="10"
     gridtolerance="10"
     guidetolerance="10"
     id="namedview"
     showgrid="true"
     inkscape:zoom="41.125"
     inkscape:cx="8"
     inkscape:cy="8"
     inkscape:window-width="1296"
     inkscape:window-height="890"
     inkscape:window-x="65"
     inkscape:window-y="-6"
     inkscape:window-maximized="1"
     inkscape:current-layer="svg1">
    <inkscape:grid
       type="xygrid"
       id="grid" />
  </sodipodi:namedview>
  <g
     transform="translate(-165,-647.36218)"
     inkscape:label="00079"
     id="path-exclusion">
    <path
       inkscape:connector-curvature="0"
       id="rect23215"
       d="m 165,647.36218 h 16 v 16 h -16 z"
       style="opacity:0;fill:none" />
    <path
       inkscape:connector-curvature="0"
       style="opacity:1"
       d="m 175.9687,140 c 0.0149,0.1649 0.0313,0.3312 0.0313,0.5 0,1.3289 -0.4654,2.5493 -1.25,3.5 -0.0909,0.1057 -0.1828,0.214 -0.2813,0.3125 -0.0252,0.0264 -0.0678,0.0366 -0.0937,0.0625 -0.1005,0.0965 -0.1737,0.2237 -0.2813,0.3125 -0.0278,0.0239 -0.0654,0.0392 -0.0937,0.0625 -0.1092,0.0865 -0.2281,0.1718 -0.3438,0.25 -0.0185,0.0131 -0.0438,0.0184 -0.0625,0.0312 -0.1579,0.1038 -0.3,0.2251 -0.4687,0.3125 -0.7564,0.392 -1.6211,0.5938 -2.5313,0.5938 -0.2123,0 -0.3877,-0.1016 -0.5937,-0.125 V 145.9687 150 h 10 v -10 z"
       transform="translate(0,512.3622)"
       id="rect23219" />
    <path
       inkscape:connector-curvature="0"
       style="opacity:1"
       d="m 170.5,135 c -3.0376,0 -5.5,2.4624 -5.5,5.5 0,2.8793 2.2137,5.2303 5.0312,5.4687 V 140 h 5.9375 c -0.2529,-2.8029 -2.6,-5 -5.4687,-5 z"
       transform="translate(0,512.3622)"
       id="path23226" />
    <path
       inkscape:connector-curvature="0"
       id="path23213"
       d="m 170.0313,652.3621 v 5.9688 c 0.1649,0.0149 0.3312,0.0313 0.5,0.0313 3.0376,0 5.5,-2.4625 5.5,-5.5 0,-0.1688 -0.0164,-0.3351 -0.0313,-0.5 z"
       style="opacity:0.5"
       class="warning" />
  </g>
</svg>
