<?xml version="1.0" encoding="UTF-8" standalone="no"?>
<svg
   xmlns:dc="http://purl.org/dc/elements/1.1/"
   xmlns:cc="http://creativecommons.org/ns#"
   xmlns:rdf="http://www.w3.org/1999/02/22-rdf-syntax-ns#"
   xmlns:svg="http://www.w3.org/2000/svg"
   xmlns="http://www.w3.org/2000/svg"
   xmlns:sodipodi="http://sodipodi.sourceforge.net/DTD/sodipodi-0.dtd"
   xmlns:inkscape="http://www.inkscape.org/namespaces/inkscape"
   inkscape:version="1.1-dev (1fceb22ce1, 2019-12-30, custom)"
   sodipodi:docname="powermask-symbolic.svg"
   viewBox="0 0 16 16"
   height="16"
   width="16"
   id="svg1"
   version="1.1">
  <defs
     id="defs659" />
  <style
     id="s0">.base { fill:#000000; }
.success { fill:#009909; }
.warning { fill:#FF1990; }
.error { fill:#00AAFF; }
.dark {  }
</style>
  <style
     id="s2">
@import '../../highlights.css';
</style>
  <sodipodi:namedview
     inkscape:current-layer="svg1"
     inkscape:window-maximized="1"
     inkscape:window-height="1376"
     inkscape:window-width="2560"
     inkscape:window-y="27"
     inkscape:window-x="0"
     inkscape:cy="8.9906751"
     inkscape:cx="5.9561449"
     inkscape:zoom="27.166187"
     showgrid="true"
     id="namedview"
     guidetolerance="10"
     gridtolerance="10"
     objecttolerance="10">
    <inkscape:grid
       id="grid"
       type="xygrid" />
  </sodipodi:namedview>
  <metadata
     id="metadata1906">
    <rdf:RDF>
      <cc:Work
         rdf:about="">
        <dc:format>image/svg+xml</dc:format>
        <dc:type
           rdf:resource="http://purl.org/dc/dcmitype/StillImage" />
        <cc:license
           rdf:resource="http://creativecommons.org/publicdomain/zero/1.0/" />
        <dc:title></dc:title>
        <dc:date>13 Jan 2019</dc:date>
        <dc:creator>
          <cc:Agent>
            <dc:title>Ramón Miranda</dc:title>
          </cc:Agent>
        </dc:creator>
        <dc:rights>
          <cc:Agent>
            <dc:title>see the license tab</dc:title>
          </cc:Agent>
        </dc:rights>
        <dc:subject>
          <rdf:Bag>
            <rdf:li>icon ui</rdf:li>
          </rdf:Bag>
        </dc:subject>
        <dc:description>This is a contribution with Inkscape Project from
Ramon Miranda www.ramonmiranda.com (design and SVG file)
Jabiertxo (SVG stuff to integrate them in UI)</dc:description>
        <dc:publisher>
          <cc:Agent>
            <dc:title />
          </cc:Agent>
        </dc:publisher>
        <dc:identifier />
        <dc:source />
        <dc:relation />
        <dc:language>-</dc:language>
        <dc:coverage />
        <dc:contributor>
          <cc:Agent>
            <dc:title>Ramon Miranda
Jabier Arraiza</dc:title>
          </cc:Agent>
        </dc:contributor>
      </cc:Work>
      <cc:License
         rdf:about="http://creativecommons.org/publicdomain/zero/1.0/">
        <cc:permits
           rdf:resource="http://creativecommons.org/ns#Reproduction" />
        <cc:permits
           rdf:resource="http://creativecommons.org/ns#Distribution" />
        <cc:permits
           rdf:resource="http://creativecommons.org/ns#DerivativeWorks" />
      </cc:License>
    </rdf:RDF>
  </metadata>
  <g
     inkscape:label="powermask"
     id="layercompo"
     inkscape:groupmode="layer">
    <path
       style="opacity:0;fill:none"
       d="M 0,0 H 16 V 16 H 0 Z"
       id="rect22048" />
    <path
       style="opacity:1"
       d="M 0.4042969 0.3964844 C 0.4002469 0.3964844 0.3964844 0.4002469 0.3964844 0.4042969 L 0.3964844 15.5957 C 0.3964844 15.5997 0.4002469 15.60352 0.4042969 15.60352 L 15.5957 15.60352 C 15.5997 15.60352 15.60352 15.5997 15.60352 15.5957 L 15.60352 0.4042969 C 15.60352 0.4002469 15.5997 0.3964844 15.5957 0.3964844 L 0.4042969 0.3964844 z M 7.775391 1.59375 C 8.016066 1.585349 8.25598 1.590759 8.494141 1.609375 L 8.458984 2.050781 C 8.237388 2.033171 8.014893 2.029309 7.791016 2.037109 L 7.775391 1.59375 z M 7.058594 1.658203 L 7.125 2.097656 C 6.906051 2.130257 6.686101 2.176392 6.46875 2.234375 L 6.355469 1.804688 C 6.589062 1.742366 6.823201 1.693256 7.058594 1.658203 z M 9.205078 1.705078 C 9.440787 1.750441 9.673718 1.80773 9.902344 1.878906 L 9.771484 2.304688 C 9.558623 2.238411 9.340517 2.182835 9.121094 2.140625 L 9.205078 1.705078 z M 5.671875 2.029297 L 5.833984 2.441406 C 5.730665 2.481795 5.627603 2.525652 5.525391 2.572266 C 5.423177 2.618869 5.322851 2.669159 5.224609 2.720703 L 5.017578 2.326172 C 5.123055 2.270854 5.232135 2.217957 5.341797 2.167969 C 5.451453 2.117965 5.560944 2.072648 5.671875 2.029297 z M 7.775391 2.041016 L 7.792969 2.484375 C 7.588353 2.492195 7.381498 2.511649 7.175781 2.542969 L 7.109375 2.103516 C 7.331715 2.069696 7.55416 2.049416 7.775391 2.041016 z M 8.443359 2.052734 C 8.666748 2.069499 8.889176 2.099188 9.107422 2.140625 L 9.023438 2.578125 C 8.821442 2.539745 8.616799 2.511604 8.410156 2.496094 L 8.443359 2.052734 z M 10.57617 2.130859 C 10.79544 2.227039 11.0091 2.336713 11.2168 2.457031 L 10.99414 2.841797 C 10.80079 2.729798 10.6026 2.628614 10.39844 2.539062 L 10.57617 2.130859 z M 6.455078 2.242188 L 6.570312 2.669922 C 6.471218 2.696592 6.372147 2.727256 6.273438 2.759766 C 6.174732 2.792278 6.077972 2.827794 5.982422 2.865234 L 5.820312 2.451172 C 5.923471 2.410759 6.028289 2.372944 6.134766 2.337891 C 6.241249 2.302817 6.348092 2.270967 6.455078 2.242188 z M 9.755859 2.302734 C 9.969195 2.368666 10.17866 2.446075 10.38281 2.535156 L 10.20508 2.941406 C 10.01605 2.858926 9.822484 2.787593 9.625 2.726562 L 9.755859 2.302734 z M 7.744141 2.505859 C 7.951346 2.495892 8.157562 2.498368 8.361328 2.511719 L 8.332031 2.955078 C 8.144851 2.942678 7.956036 2.940119 7.765625 2.949219 L 7.744141 2.505859 z M 7.130859 2.570312 L 7.201172 3.007812 C 7.108352 3.022744 7.014905 3.04222 6.921875 3.0625 C 6.828853 3.0828 6.737094 3.103806 6.646484 3.128906 L 6.527344 2.701172 C 6.62583 2.673912 6.727106 2.648993 6.828125 2.626953 C 6.929142 2.604888 7.029978 2.58654 7.130859 2.570312 z M 8.972656 2.585938 C 9.176009 2.622571 9.375944 2.671682 9.572266 2.730469 L 9.445312 3.15625 C 9.264869 3.102224 9.081348 3.057087 8.894531 3.023438 L 8.972656 2.585938 z M 4.402344 2.695312 L 4.650391 3.0625 C 4.46409 3.188579 4.287329 3.324822 4.119141 3.46875 L 3.830078 3.130859 C 4.010893 2.976122 4.202118 2.830808 4.402344 2.695312 z M 5.212891 2.728516 L 5.419922 3.121094 C 5.235859 3.21816 5.059834 3.326092 4.890625 3.441406 L 4.638672 3.074219 C 4.821618 2.949546 5.013957 2.833427 5.212891 2.728516 z M 10.97852 2.835938 C 11.17148 2.947192 11.35924 3.068778 11.53906 3.201172 L 11.27539 3.558594 C 11.10894 3.436037 10.93648 3.323707 10.75781 3.220703 L 10.97852 2.835938 z M 11.81836 2.851562 C 12.01035 2.99367 12.19489 3.146413 12.37109 3.310547 L 12.06836 3.634766 C 11.90443 3.482087 11.73334 3.341219 11.55469 3.208984 L 11.81836 2.851562 z M 5.943359 2.898438 L 6.109375 3.310547 C 5.93249 3.381598 5.760781 3.461696 5.595703 3.550781 L 5.384766 3.160156 C 5.564471 3.063178 5.750867 2.975753 5.943359 2.898438 z M 10.15234 2.939453 C 10.34179 3.020241 10.52627 3.111739 10.70508 3.212891 L 10.48633 3.599609 C 10.32189 3.506587 10.15269 3.421936 9.978516 3.347656 L 10.15234 2.939453 z M 7.771484 2.994141 L 7.792969 3.4375 C 7.708105 3.44143 7.622709 3.448331 7.537109 3.457031 C 7.451513 3.465801 7.367113 3.475011 7.283203 3.488281 L 7.212891 3.050781 C 7.304882 3.036251 7.398456 3.023172 7.492188 3.013672 C 7.585924 3.004082 7.678454 2.998241 7.771484 2.994141 z M 8.333984 2.998047 C 8.522645 3.01042 8.709414 3.033374 8.892578 3.066406 L 8.8125 3.503906 C 8.645701 3.473806 8.476575 3.452666 8.304688 3.441406 L 8.333984 2.998047 z M 6.664062 3.169922 L 6.78125 3.597656 C 6.615187 3.643391 6.454171 3.698592 6.296875 3.761719 L 6.130859 3.349609 C 6.303586 3.280291 6.48179 3.220115 6.664062 3.169922 z M 9.439453 3.197266 C 9.619835 3.251381 9.795055 3.315224 9.966797 3.388672 L 9.792969 3.798828 C 9.636482 3.7319 9.474835 3.672367 9.310547 3.623047 L 9.439453 3.197266 z M 8 3.460938 C 8.085344 3.460938 8.169666 3.462197 8.253906 3.466797 L 8.230469 3.910156 C 8.154399 3.905856 8.07715 3.904297 8 3.904297 C 7.944771 3.904297 7.890607 3.906103 7.835938 3.908203 L 7.849609 4.271484 C 7.881819 4.270484 7.915116 4.269978 7.947266 4.269531 C 8.055112 4.268031 8.162871 4.271497 8.269531 4.279297 L 8.294922 3.912109 C 8.427357 3.921495 8.558372 3.937104 8.6875 3.958984 L 8.759766 3.523438 C 8.928643 3.551925 9.095781 3.590102 9.257812 3.636719 L 9.134766 4.064453 C 9.00911 4.028323 8.880331 3.996766 8.75 3.972656 L 8.683594 4.333984 C 8.820982 4.359808 8.956855 4.392792 9.089844 4.433594 L 9.197266 4.078125 C 9.323571 4.116751 9.447258 4.162645 9.568359 4.212891 L 9.738281 3.804688 C 9.895876 3.870035 10.04925 3.943415 10.19727 4.025391 L 9.982422 4.414062 C 9.867841 4.350599 9.747916 4.292664 9.626953 4.240234 L 9.482422 4.578125 C 9.610423 4.633611 9.73442 4.696286 9.855469 4.765625 L 10.03906 4.445312 C 10.15322 4.510924 10.26397 4.580203 10.37109 4.65625 L 10.62695 4.296875 C 10.76554 4.395383 10.89896 4.502177 11.02539 4.615234 L 10.72852 4.947266 C 10.63059 4.859692 10.52987 4.775236 10.42383 4.697266 L 10.20703 4.994141 C 10.31941 5.076359 10.42633 5.165072 10.5293 5.259766 L 10.7793 4.988281 C 10.87602 5.077458 10.96871 5.17132 11.05664 5.269531 L 11.38477 4.974609 C 11.49784 5.101036 11.6046 5.234461 11.70312 5.373047 L 11.33984 5.630859 C 11.26351 5.523458 11.1818 5.419693 11.0957 5.320312 L 10.82031 5.558594 C 10.91129 5.663462 10.99869 5.77488 11.07812 5.890625 L 11.38086 5.681641 C 11.45524 5.789874 11.5239 5.901871 11.58789 6.017578 L 11.97461 5.804688 C 12.05658 5.952707 12.12994 6.104133 12.19531 6.261719 L 11.78516 6.433594 C 11.73458 6.311592 11.67703 6.191887 11.61523 6.076172 L 11.29297 6.248047 C 11.3578 6.370049 11.41697 6.49586 11.46875 6.626953 L 11.8125 6.492188 C 11.8606 6.613791 11.90291 6.737882 11.93945 6.865234 L 12.36328 6.744141 C 12.40986 6.906178 12.44812 7.071357 12.47656 7.240234 L 12.03906 7.314453 C 12.01696 7.183931 11.98714 7.055643 11.95312 6.929688 L 11.60156 7.023438 C 11.63846 7.159597 11.6667 7.296979 11.6875 7.433594 L 12.05078 7.378906 C 12.06228 7.454197 12.07308 7.528759 12.08008 7.605469 C 12.08568 7.660326 12.0888 7.714991 12.0918 7.769531 L 12.5332 7.746094 C 12.5382 7.83032 12.53906 7.91463 12.53906 8 C 12.53906 8.085343 12.5372 8.169666 12.5332 8.253906 L 12.08984 8.230469 C 12.09384 8.154399 12.0957 8.07715 12.0957 8 C 12.0957 7.944754 12.0938 7.890657 12.0918 7.835938 L 11.72852 7.849609 C 11.73432 7.989896 11.7313 8.131096 11.7207 8.269531 L 12.08984 8.294922 C 12.08044 8.427339 12.06487 8.558389 12.04297 8.6875 L 12.47656 8.759766 C 12.44815 8.928643 12.40988 9.095782 12.36328 9.257812 L 11.9375 9.134766 C 11.9736 9.009118 12.00324 8.880323 12.02734 8.75 L 11.66797 8.683594 C 11.64218 8.820965 11.60711 8.956855 11.56641 9.089844 L 11.92188 9.197266 C 11.8832 9.32356 11.83936 9.447266 11.78906 9.568359 L 12.19531 9.738281 C 12.12996 9.89587 12.05661 10.04925 11.97461 10.19727 L 11.58594 9.982422 C 11.64941 9.867836 11.70727 9.749879 11.75977 9.628906 L 11.42188 9.482422 C 11.36639 9.610407 11.30376 9.734443 11.23438 9.855469 L 11.55664 10.04102 C 11.49103 10.15517 11.41975 10.26399 11.34375 10.37109 L 11.70312 10.62695 C 11.60464 10.76553 11.49784 10.89897 11.38477 11.02539 L 11.05469 10.72852 C 11.14224 10.63062 11.22483 10.52987 11.30273 10.42383 L 11.00781 10.20703 C 10.92557 10.31942 10.83689 10.42636 10.74219 10.5293 L 11.01367 10.7793 C 10.9245 10.87601 10.82867 10.96884 10.73047 11.05664 L 11.02539 11.38477 C 10.89897 11.49781 10.76553 11.60464 10.62695 11.70312 L 10.37109 11.33984 C 10.47849 11.26351 10.58029 11.18376 10.67969 11.09766 L 10.44141 10.82227 C 10.33656 10.91326 10.22707 10.99667 10.11133 11.07617 L 10.32031 11.38086 C 10.21209 11.45525 10.09813 11.52389 9.982422 11.58789 L 10.19727 11.97461 C 10.04925 12.05659 9.895867 12.12992 9.738281 12.19531 L 9.568359 11.78516 C 9.690344 11.73456 9.808087 11.67899 9.923828 11.61719 L 9.751953 11.29492 C 9.629994 11.35972 9.504096 11.41705 9.373047 11.46875 L 9.507812 11.8125 C 9.386247 11.86049 9.262085 11.90295 9.134766 11.93945 L 9.257812 12.36328 C 9.095785 12.4099 8.928653 12.44806 8.759766 12.47656 L 8.6875 12.03906 C 8.817978 12.01706 8.946307 11.98723 9.072266 11.95312 L 8.976562 11.60156 C 8.840454 11.63856 8.702971 11.6665 8.566406 11.6875 L 8.623047 12.05078 C 8.547756 12.06228 8.471241 12.07308 8.394531 12.08008 C 8.339682 12.08578 8.285009 12.0888 8.230469 12.0918 L 8.253906 12.5332 C 8.169679 12.5382 8.08537 12.53906 8 12.53906 C 7.914656 12.53906 7.830324 12.5372 7.746094 12.5332 L 7.769531 12.08984 C 7.845601 12.09384 7.92284 12.0957 8 12.0957 C 8.055246 12.0957 8.109344 12.0938 8.164062 12.0918 L 8.150391 11.72852 C 8.010059 11.73432 7.870899 11.7313 7.732422 11.7207 L 7.705078 12.08984 C 7.572658 12.08044 7.441606 12.06487 7.3125 12.04297 L 7.240234 12.47656 C 7.07135 12.44814 6.906175 12.40998 6.744141 12.36328 L 6.865234 11.9375 C 6.990887 11.9736 7.119699 12.00324 7.25 12.02734 L 7.316406 11.66797 C 7.179007 11.64217 7.043167 11.60721 6.910156 11.56641 L 6.802734 11.92188 C 6.676401 11.8832 6.552773 11.83741 6.431641 11.78711 L 6.261719 12.19531 C 6.104133 12.12998 5.950753 12.05661 5.802734 11.97461 L 6.019531 11.58594 C 6.134129 11.6494 6.252103 11.7073 6.373047 11.75977 L 6.519531 11.42188 C 6.391524 11.36637 6.265579 11.30376 6.144531 11.23438 L 5.960938 11.55664 C 5.846775 11.49103 5.735996 11.41975 5.628906 11.34375 L 5.373047 11.70312 C 5.234462 11.60464 5.101033 11.49781 4.974609 11.38477 L 5.271484 11.05469 C 5.369405 11.14225 5.472099 11.2248 5.578125 11.30273 L 5.794922 11.00781 C 5.682538 10.92557 5.573664 10.83689 5.470703 10.74219 L 5.220703 11.01367 C 5.124022 10.92454 5.031229 10.83062 4.943359 10.73242 L 4.615234 11.02539 C 4.502177 10.89896 4.395375 10.76552 4.296875 10.62695 L 4.660156 10.37109 C 4.736486 10.4785 4.818175 10.58023 4.904297 10.67969 L 5.179688 10.44141 C 5.088726 10.33655 5.003258 10.22705 4.923828 10.11133 L 4.619141 10.32031 C 4.544742 10.21206 4.476119 10.09815 4.412109 9.982422 L 4.025391 10.19727 C 3.943415 10.04925 3.870027 9.89587 3.804688 9.738281 L 4.214844 9.568359 C 4.265439 9.690367 4.322963 9.80807 4.384766 9.923828 L 4.707031 9.751953 C 4.642224 9.629987 4.58301 9.504105 4.53125 9.373047 L 4.1875 9.509766 C 4.139459 9.388205 4.097097 9.262075 4.060547 9.134766 L 3.636719 9.257812 C 3.59012 9.095778 3.551897 8.928651 3.523438 8.759766 L 3.962891 8.6875 C 3.984899 8.81796 4.012862 8.946319 4.046875 9.072266 L 4.398438 8.976562 C 4.361457 8.84044 4.33357 8.702989 4.3125 8.566406 L 3.949219 8.623047 C 3.937719 8.547763 3.927422 8.471241 3.919922 8.394531 C 3.914742 8.339664 3.911403 8.285009 3.908203 8.230469 L 3.466797 8.253906 C 3.462397 8.16967 3.460938 8.08537 3.460938 8 C 3.460938 7.914648 3.462197 7.830334 3.466797 7.746094 L 3.910156 7.769531 C 3.905856 7.845601 3.904297 7.92285 3.904297 8 C 3.904297 8.055256 3.906103 8.111296 3.908203 8.166016 L 4.271484 8.150391 C 4.265874 8.010051 4.269157 7.870892 4.279297 7.732422 L 3.910156 7.705078 C 3.919546 7.57266 3.937104 7.44161 3.958984 7.3125 L 3.523438 7.240234 C 3.551925 7.071357 3.590103 6.906178 3.636719 6.744141 L 4.064453 6.865234 C 4.028323 6.990898 3.996766 7.119696 3.972656 7.25 L 4.333984 7.316406 C 4.359813 7.178993 4.392779 7.045132 4.433594 6.912109 L 4.078125 6.802734 C 4.116762 6.676386 4.162596 6.552777 4.212891 6.431641 L 3.804688 6.261719 C 3.870035 6.104132 3.943416 5.952707 4.025391 5.804688 L 4.414062 6.019531 C 4.350579 6.134157 4.292677 6.252068 4.240234 6.373047 L 4.578125 6.519531 C 4.633614 6.391537 4.696282 6.265562 4.765625 6.144531 L 4.443359 5.960938 C 4.508974 5.846771 4.580189 5.73601 4.65625 5.628906 L 4.296875 5.373047 C 4.395379 5.234461 4.502177 5.101036 4.615234 4.974609 L 4.947266 5.271484 C 4.8597 5.369402 4.775227 5.472105 4.697266 5.578125 L 4.994141 5.794922 C 5.076353 5.682563 5.165086 5.573655 5.259766 5.470703 L 4.988281 5.220703 C 5.077441 5.123999 5.171342 5.031244 5.269531 4.943359 L 4.974609 4.615234 C 5.101033 4.502177 5.234462 4.395383 5.373047 4.296875 L 5.630859 4.660156 C 5.523449 4.736504 5.419702 4.818157 5.320312 4.904297 L 5.558594 5.179688 C 5.663448 5.088717 5.774877 5.003268 5.890625 4.923828 L 5.681641 4.619141 C 5.789903 4.544741 5.901839 4.476126 6.017578 4.412109 L 5.802734 4.025391 C 5.950746 3.943415 6.104129 3.870034 6.261719 3.804688 L 6.431641 4.214844 C 6.309634 4.265438 6.191896 4.323055 6.076172 4.384766 L 6.248047 4.707031 C 6.370029 4.642213 6.495871 4.583022 6.626953 4.53125 L 6.492188 4.1875 C 6.613806 4.139441 6.73787 4.097104 6.865234 4.060547 L 6.744141 3.636719 C 6.90618 3.590122 7.071355 3.551906 7.240234 3.523438 L 7.314453 3.962891 C 7.183942 3.984908 7.05564 4.012859 6.929688 4.046875 L 7.023438 4.400391 C 7.15958 4.363381 7.29699 4.33355 7.433594 4.3125 L 7.378906 3.949219 C 7.454198 3.937709 7.528769 3.927422 7.605469 3.919922 C 7.66034 3.914742 7.714931 3.911403 7.769531 3.908203 L 7.746094 3.466797 C 7.830326 3.461897 7.91466 3.460938 8 3.460938 z M 4.109375 3.480469 L 4.398438 3.818359 C 4.24146 3.953627 4.092796 4.097168 3.953125 4.248047 L 3.626953 3.945312 C 3.478586 4.105512 3.337904 4.271144 3.208984 4.445312 L 2.851562 4.181641 C 2.99367 3.989662 3.146417 3.805122 3.310547 3.628906 L 3.636719 3.931641 C 3.632892 3.93575 3.630768 3.941194 3.626953 3.945312 C 3.77789 3.782261 3.939673 3.626703 4.109375 3.480469 z M 4.859375 3.484375 L 5.113281 3.847656 C 4.957463 3.956082 4.809496 4.072982 4.667969 4.197266 L 4.375 3.863281 C 4.528992 3.728051 4.689767 3.602395 4.859375 3.484375 z M 11.22461 3.544922 C 11.39106 3.665342 11.55078 3.795024 11.70312 3.933594 L 11.4043 4.263672 C 11.26423 4.136271 11.11792 4.016994 10.96484 3.90625 L 11.22461 3.544922 z M 5.621094 3.587891 L 5.832031 3.978516 C 5.681073 4.059948 5.536231 4.148956 5.396484 4.246094 L 5.142578 3.880859 C 5.295949 3.774256 5.455355 3.677308 5.621094 3.587891 z M 12.05469 3.626953 C 12.21774 3.777896 12.3733 3.939671 12.51953 4.109375 L 12.18164 4.398438 C 12.04637 4.241459 11.90281 4.092794 11.75195 3.953125 L 12.05469 3.626953 z M 10.4707 3.638672 C 10.63394 3.73133 10.79185 3.833356 10.94336 3.943359 L 10.68164 4.302734 C 10.54349 4.202427 10.40074 4.109851 10.25195 4.025391 L 10.4707 3.638672 z M 12.86914 3.830078 C 13.02389 4.010889 13.16918 4.200171 13.30469 4.400391 L 12.9375 4.650391 C 12.81142 4.464093 12.67517 4.287319 12.53125 4.119141 L 12.86914 3.830078 z M 4.699219 4.228516 L 4.992188 4.5625 C 4.863502 4.675268 4.742011 4.793792 4.626953 4.919922 L 4.298828 4.621094 C 4.425011 4.48277 4.558051 4.35222 4.699219 4.228516 z M 3.933594 4.296875 L 4.263672 4.595703 C 4.136269 4.735786 4.017 4.882086 3.90625 5.035156 L 3.544922 4.775391 C 3.665349 4.608946 3.795024 4.449234 3.933594 4.296875 z M 11.37891 4.298828 C 11.51724 4.425016 11.64778 4.558051 11.77148 4.699219 L 11.4375 4.992188 C 11.32475 4.863501 11.20621 4.742011 11.08008 4.626953 L 11.37891 4.298828 z M 12.13477 4.375 C 12.27001 4.528994 12.3976 4.689766 12.51562 4.859375 L 12.15039 5.113281 C 12.04197 4.957462 11.92506 4.809494 11.80078 4.667969 L 12.13477 4.375 z M 3.201172 4.460938 L 3.558594 4.724609 C 3.436036 4.891052 3.323706 5.063523 3.220703 5.242188 L 2.835938 5.019531 C 2.726913 5.208842 2.626627 5.401933 2.539062 5.601562 L 2.130859 5.423828 C 2.227038 5.204546 2.336709 4.990908 2.457031 4.783203 L 2.841797 5.005859 C 2.839309 5.010154 2.838413 5.015231 2.835938 5.019531 C 2.94719 4.826565 3.068777 4.640745 3.201172 4.460938 z M 12.92578 4.638672 C 13.05046 4.821621 13.16657 5.013959 13.27148 5.212891 L 12.87891 5.419922 C 12.78184 5.23586 12.67389 5.057879 12.55859 4.888672 L 12.92578 4.638672 z M 13.67383 5.017578 C 13.72916 5.123053 13.78203 5.230185 13.83203 5.339844 C 13.88205 5.449503 13.9274 5.560939 13.9707 5.671875 L 13.55664 5.833984 C 13.51637 5.730653 13.47433 5.627603 13.42773 5.525391 C 13.38108 5.423176 13.3308 5.322839 13.2793 5.224609 L 13.67383 5.017578 z M 3.943359 5.056641 L 4.302734 5.318359 C 4.202427 5.456511 4.109861 5.599247 4.025391 5.748047 L 3.638672 5.529297 C 3.73133 5.366065 3.833355 5.208149 3.943359 5.056641 z M 12.11914 5.142578 C 12.22576 5.295947 12.32269 5.455352 12.41211 5.621094 L 12.02148 5.832031 C 11.94004 5.681069 11.85101 5.536232 11.75391 5.396484 L 12.11914 5.142578 z M 3.212891 5.294922 L 3.599609 5.513672 C 3.506588 5.678119 3.421932 5.8473 3.347656 6.021484 L 2.939453 5.847656 C 3.020242 5.658212 3.111746 5.473736 3.212891 5.294922 z M 12.83984 5.384766 C 12.93682 5.564472 13.02425 5.750869 13.10156 5.943359 L 12.6875 6.109375 C 12.61644 5.93249 12.53637 5.760779 12.44727 5.595703 L 12.83984 5.384766 z M 2.535156 5.617188 L 2.941406 5.794922 C 2.85892 5.983946 2.787593 6.177517 2.726562 6.375 L 2.302734 6.244141 C 2.368667 6.030804 2.446071 5.821335 2.535156 5.617188 z M 13.54883 5.820312 C 13.58925 5.923474 13.62704 6.028288 13.66211 6.134766 C 13.69716 6.241253 13.72897 6.348099 13.75781 6.455078 L 13.33008 6.570312 C 13.30348 6.471204 13.27273 6.372158 13.24023 6.273438 C 13.20779 6.174726 13.17227 6.077962 13.13477 5.982422 L 13.54883 5.820312 z M 3.388672 6.033203 L 3.798828 6.207031 C 3.731905 6.36351 3.672365 6.525164 3.623047 6.689453 L 3.197266 6.560547 C 3.251381 6.380163 3.315226 6.204937 3.388672 6.033203 z M 1.880859 6.097656 L 2.304688 6.228516 C 2.238421 6.441385 2.182834 6.657542 2.140625 6.876953 L 1.705078 6.792969 C 1.750435 6.55726 1.809679 6.326283 1.880859 6.097656 z M 12.65234 6.130859 C 12.72168 6.30358 12.78181 6.481791 12.83203 6.664062 L 12.40234 6.78125 C 12.35662 6.615187 12.30138 6.454166 12.23828 6.296875 L 12.65234 6.130859 z M 14.19531 6.355469 C 14.25764 6.589066 14.30674 6.823188 14.3418 7.058594 L 13.90234 7.125 C 13.86971 6.906045 13.82362 6.686104 13.76562 6.46875 L 14.19531 6.355469 z M 2.728516 6.427734 L 3.154297 6.554688 C 3.100266 6.735121 3.057092 6.918651 3.023438 7.105469 L 2.585938 7.027344 C 2.622571 6.823991 2.66973 6.624057 2.728516 6.427734 z M 13.29883 6.529297 C 13.32613 6.627775 13.35105 6.727106 13.37305 6.828125 C 13.39505 6.929148 13.41329 7.029988 13.42969 7.130859 L 12.99023 7.201172 C 12.97523 7.108357 12.9578 7.014905 12.9375 6.921875 C 12.9172 6.828852 12.89414 6.737104 12.86914 6.646484 L 13.29883 6.529297 z M 2.140625 6.892578 L 2.578125 6.976562 C 2.539785 7.178557 2.511604 7.383214 2.496094 7.589844 L 2.052734 7.556641 C 2.036157 7.773124 2.029479 7.990337 2.037109 8.208984 L 1.59375 8.224609 C 1.58541 7.983939 1.590755 7.743993 1.609375 7.505859 L 2.052734 7.541016 C 2.052323 7.546196 2.053131 7.551458 2.052734 7.556641 C 2.0695 7.333252 2.099196 7.110867 2.140625 6.892578 z M 3.066406 7.107422 L 3.503906 7.1875 C 3.473816 7.354299 3.452656 7.523442 3.441406 7.695312 L 2.998047 7.666016 C 3.010417 7.477355 3.033366 7.290585 3.066406 7.107422 z M 13.89648 7.109375 C 13.93018 7.331717 13.95098 7.554157 13.95898 7.775391 L 13.51562 7.792969 C 13.50782 7.588352 13.48843 7.381507 13.45703 7.175781 L 13.89648 7.109375 z M 12.94922 7.212891 C 12.96392 7.304875 12.97633 7.398447 12.98633 7.492188 C 12.99583 7.585929 13.00186 7.678444 13.00586 7.771484 L 12.5625 7.792969 C 12.5586 7.708111 12.55097 7.622729 12.54297 7.537109 C 12.53437 7.451514 12.52492 7.367093 12.51172 7.283203 L 12.94922 7.212891 z M 2.511719 7.638672 L 2.955078 7.667969 C 2.942978 7.855158 2.940119 8.043966 2.949219 8.234375 L 2.505859 8.255859 C 2.495919 8.048653 2.498399 7.842442 2.511719 7.638672 z M 13.49414 7.744141 C 13.50444 7.951339 13.50158 8.15756 13.48828 8.361328 L 13.04492 8.332031 C 13.05592 8.144851 13.05783 7.956035 13.04883 7.765625 L 13.49414 7.744141 z M 14.40625 7.775391 C 14.41455 8.016062 14.40924 8.256017 14.39062 8.494141 L 13.94727 8.458984 C 13.94766 8.453804 13.94689 8.448542 13.94727 8.443359 C 13.93047 8.666747 13.90087 8.889132 13.85938 9.107422 L 13.42188 9.023438 C 13.46037 8.821442 13.48841 8.616791 13.50391 8.410156 L 13.94727 8.443359 C 13.96304 8.226872 13.96973 8.009664 13.96289 7.791016 L 14.40625 7.775391 z M 2.484375 8.207031 C 2.4922 8.411649 2.511649 8.618476 2.542969 8.824219 L 2.103516 8.890625 C 2.069696 8.668284 2.049416 8.445833 2.041016 8.224609 L 2.484375 8.207031 z M 3.4375 8.207031 C 3.44144 8.29189 3.448319 8.377297 3.457031 8.462891 C 3.465743 8.548494 3.47696 8.632891 3.490234 8.716797 L 3.050781 8.787109 C 3.036201 8.695126 3.023172 8.601554 3.013672 8.507812 C 3.004132 8.414073 2.998241 8.321546 2.994141 8.228516 L 3.4375 8.207031 z M 12.55859 8.304688 L 13.00195 8.333984 C 12.98965 8.522637 12.96649 8.709415 12.93359 8.892578 L 12.49609 8.8125 C 12.52619 8.645701 12.54729 8.476568 12.55859 8.304688 z M 3.007812 8.798828 C 3.022757 8.891652 3.040271 8.985102 3.060547 9.078125 C 3.080817 9.171148 3.103811 9.262913 3.128906 9.353516 L 2.701172 9.470703 C 2.673882 9.372216 2.648983 9.272893 2.626953 9.171875 C 2.604933 9.07086 2.586552 8.970022 2.570312 8.869141 L 3.007812 8.798828 z M 2.097656 8.875 C 2.130253 9.093947 2.176385 9.313909 2.234375 9.53125 L 1.804688 9.644531 C 1.742366 9.410939 1.693253 9.176795 1.658203 8.941406 L 2.097656 8.875 z M 12.97656 8.894531 L 13.41406 8.972656 C 13.37742 9.176008 13.32833 9.375935 13.26953 9.572266 L 12.84375 9.445312 C 12.89779 9.26489 12.94286 9.081348 12.97656 8.894531 z M 13.85938 9.121094 L 14.29492 9.205078 C 14.24957 9.440792 14.19034 9.673722 14.11914 9.902344 L 13.69531 9.771484 C 13.76156 9.558625 13.81728 9.340505 13.85938 9.121094 z M 3.597656 9.21875 C 3.643391 9.384818 3.698596 9.545825 3.761719 9.703125 L 3.349609 9.869141 C 3.28029 9.696423 3.220112 9.518209 3.169922 9.335938 L 3.597656 9.21875 z M 12.37695 9.310547 L 12.80273 9.439453 C 12.74862 9.619826 12.68473 9.795061 12.61133 9.966797 L 12.20117 9.792969 C 12.26811 9.636489 12.32765 9.474832 12.37695 9.310547 z M 2.669922 9.429688 C 2.696597 9.528779 2.727254 9.627857 2.759766 9.726562 C 2.792278 9.82527 2.827796 9.922031 2.865234 10.01758 L 2.451172 10.17969 C 2.410757 10.07653 2.372941 9.971721 2.337891 9.865234 C 2.302831 9.758756 2.270967 9.651913 2.242188 9.544922 L 2.669922 9.429688 z M 13.27344 9.625 L 13.69727 9.755859 C 13.63135 9.969182 13.55394 10.17866 13.46484 10.38281 L 13.05859 10.20508 C 13.14106 10.01606 13.21244 9.822477 13.27344 9.625 z M 3.310547 9.890625 C 3.381599 10.06752 3.4617 10.23726 3.550781 10.40234 L 3.160156 10.61523 C 3.063179 10.43554 2.975757 10.24915 2.898438 10.05664 L 3.310547 9.890625 z M 12.65039 9.978516 L 13.06055 10.15234 C 12.97976 10.34178 12.88825 10.52626 12.78711 10.70508 L 12.40039 10.48633 C 12.49342 10.32188 12.57609 10.15268 12.65039 9.978516 z M 2.443359 10.16602 C 2.483741 10.26934 2.525656 10.37239 2.572266 10.47461 C 2.618877 10.57682 2.669173 10.67719 2.720703 10.77539 L 2.326172 10.98242 C 2.270855 10.87694 2.217949 10.76786 2.167969 10.6582 C 2.117964 10.54854 2.072647 10.43905 2.029297 10.32812 L 2.443359 10.16602 z M 3.978516 10.16797 C 4.059952 10.31893 4.148957 10.46376 4.246094 10.60352 L 3.880859 10.85742 C 3.774258 10.70406 3.677311 10.54465 3.587891 10.37891 L 3.978516 10.16797 z M 11.97461 10.25195 L 12.36133 10.4707 C 12.26866 10.63394 12.16664 10.79185 12.05664 10.94336 L 11.69727 10.68164 C 11.79759 10.54349 11.89011 10.40074 11.97461 10.25195 z M 13.46094 10.39844 L 13.86914 10.57617 C 13.77296 10.79544 13.66329 11.00909 13.54297 11.2168 L 13.1582 10.99414 C 13.27019 10.8008 13.37144 10.6026 13.46094 10.39844 z M 3.121094 10.58008 C 3.218154 10.76414 3.326093 10.94017 3.441406 11.10938 L 3.074219 11.36133 C 2.949541 11.17839 2.83343 10.98605 2.728516 10.78711 L 3.121094 10.58008 z M 12.7793 10.75781 L 13.16406 10.97852 C 13.05281 11.17148 12.93122 11.35925 12.79883 11.53906 L 12.44141 11.27539 C 12.56397 11.10894 12.67625 10.93648 12.7793 10.75781 z M 3.847656 10.88672 C 3.956078 11.04253 4.072981 11.1905 4.197266 11.33203 L 3.863281 11.625 C 3.728055 11.471 3.602395 11.31025 3.484375 11.14062 L 3.847656 10.88672 z M 12.09375 10.96484 L 12.45312 11.22461 C 12.33272 11.39106 12.20302 11.55078 12.06445 11.70312 L 11.73633 11.4043 C 11.86373 11.26422 11.983 11.11791 12.09375 10.96484 z M 4.5625 11.00781 C 4.675267 11.13649 4.793794 11.258 4.919922 11.37305 L 4.621094 11.70117 C 4.482769 11.57499 4.352221 11.44194 4.228516 11.30078 L 4.5625 11.00781 z M 11.37305 11.08008 L 11.70117 11.37891 C 11.57499 11.51723 11.44195 11.64778 11.30078 11.77148 L 11.00781 11.4375 C 11.1365 11.32473 11.25799 11.20619 11.37305 11.08008 z M 3.0625 11.34961 C 3.188574 11.5359 3.324819 11.71269 3.46875 11.88086 L 3.130859 12.16992 C 2.976121 11.98911 2.830815 11.79788 2.695312 11.59766 L 3.0625 11.34961 z M 12.79102 11.55273 L 13.14844 11.81836 C 13.00634 12.01034 12.85358 12.19487 12.68945 12.37109 L 12.36328 12.06836 C 12.3671 12.06426 12.36924 12.0588 12.37305 12.05469 C 12.2221 12.21773 12.06033 12.37329 11.89062 12.51953 L 11.60156 12.18164 C 11.75855 12.04637 11.9072 11.90283 12.04688 11.75195 L 12.37305 12.05469 C 12.52141 11.89448 12.66209 11.72691 12.79102 11.55273 z M 3.818359 11.60156 C 3.953631 11.75852 4.09717 11.9072 4.248047 12.04688 L 3.945312 12.37305 C 4.105514 12.52141 4.271144 12.6621 4.445312 12.79102 L 4.181641 13.14844 C 3.989655 13.00634 3.805127 12.85358 3.628906 12.68945 L 3.931641 12.36328 C 3.93575 12.36711 3.941194 12.36923 3.945312 12.37305 C 3.782262 12.2221 3.626708 12.06034 3.480469 11.89062 L 3.818359 11.60156 z M 5.318359 11.69727 C 5.456508 11.79757 5.599247 11.89011 5.748047 11.97461 L 5.529297 12.36133 C 5.366065 12.26866 5.208148 12.16665 5.056641 12.05664 L 5.318359 11.69727 z M 4.595703 11.73633 C 4.735788 11.86373 4.882085 11.983 5.035156 12.09375 L 4.775391 12.45312 C 4.608945 12.33272 4.449235 12.20303 4.296875 12.06445 L 4.595703 11.73633 z M 10.60352 11.75391 L 10.85742 12.11914 C 10.70404 12.22574 10.54465 12.32271 10.37891 12.41211 L 10.16797 12.02148 C 10.31892 11.94004 10.46376 11.85101 10.60352 11.75391 z M 11.33203 11.80273 L 11.625 12.13477 C 11.471 12.27 11.30828 12.39762 11.13867 12.51562 L 10.88477 12.15234 C 11.04059 12.04392 11.1905 11.927 11.33203 11.80273 z M 6.207031 12.20117 C 6.363511 12.2681 6.525165 12.32764 6.689453 12.37695 L 6.560547 12.80273 C 6.380166 12.74862 6.204935 12.68473 6.033203 12.61133 L 6.207031 12.20117 z M 9.703125 12.23828 L 9.869141 12.65039 C 9.69642 12.71971 9.518209 12.77978 9.335938 12.83008 L 9.21875 12.40234 C 9.384813 12.3566 9.545832 12.30138 9.703125 12.23828 z M 5.511719 12.40039 C 5.676164 12.49342 5.847306 12.57807 6.021484 12.65234 L 5.845703 13.06055 C 5.656258 12.97976 5.471784 12.88826 5.292969 12.78711 L 5.511719 12.40039 z M 4.724609 12.44141 C 4.89105 12.56397 5.063523 12.67629 5.242188 12.7793 L 5.019531 13.16406 C 5.208844 13.2731 5.401933 13.37338 5.601562 13.46094 L 5.423828 13.86914 C 5.204545 13.77296 4.990909 13.66329 4.783203 13.54297 L 5.005859 13.1582 C 5.010154 13.16069 5.015231 13.16159 5.019531 13.16406 C 4.826566 13.05281 4.640744 12.93123 4.460938 12.79883 L 4.724609 12.44141 z M 10.40234 12.44727 L 10.61328 12.83984 C 10.43357 12.93683 10.24719 13.02426 10.05469 13.10156 L 9.890625 12.68945 C 10.06752 12.61839 10.23727 12.53637 10.40234 12.44727 z M 7.1875 12.49609 C 7.354299 12.52619 7.523432 12.54729 7.695312 12.55859 L 7.666016 13.00195 C 7.477356 12.98965 7.290581 12.96649 7.107422 12.93359 L 7.1875 12.49609 z M 8.716797 12.50977 L 8.787109 12.94922 C 8.695125 12.96382 8.601554 12.97733 8.507812 12.98633 C 8.414074 12.99583 8.321546 13.00186 8.228516 13.00586 L 8.207031 12.5625 C 8.291898 12.5586 8.377261 12.55097 8.462891 12.54297 C 8.548486 12.53447 8.632907 12.52307 8.716797 12.50977 z M 11.88086 12.53125 L 12.16992 12.86914 C 11.98911 13.02389 11.79982 13.16918 11.59961 13.30469 L 11.34961 12.93555 C 11.35386 12.93267 11.35708 12.92867 11.36133 12.92578 C 11.17838 13.05046 10.98605 13.16653 10.78711 13.27148 L 10.58008 12.87891 C 10.76415 12.78185 10.94017 12.67391 11.10938 12.55859 L 11.36133 12.92578 C 11.54297 12.80218 11.71651 12.67189 11.88086 12.53125 z M 6.554688 12.84375 C 6.735124 12.89783 6.918646 12.94288 7.105469 12.97656 L 7.027344 13.41406 C 6.823993 13.37742 6.622107 13.32833 6.425781 13.26953 L 6.554688 12.84375 z M 9.353516 12.87109 L 9.470703 13.29883 C 9.372234 13.32603 9.272894 13.35105 9.171875 13.37305 C 9.070853 13.39505 8.970022 13.41339 8.869141 13.42969 L 8.798828 12.99219 C 8.891645 12.97719 8.985085 12.9578 9.078125 12.9375 C 9.171148 12.9172 9.262896 12.89609 9.353516 12.87109 z M 7.667969 13.04492 C 7.855147 13.05692 8.043957 13.05883 8.234375 13.04883 L 8.255859 13.49414 C 8.048652 13.50444 7.842443 13.50158 7.638672 13.48828 L 7.667969 13.04492 z M 5.794922 13.05859 C 5.983941 13.14107 6.177524 13.21244 6.375 13.27344 L 6.244141 13.69727 C 6.030812 13.63134 5.821332 13.55394 5.617188 13.46484 L 5.794922 13.05859 z M 10.01758 13.13477 L 10.17969 13.54883 C 10.07653 13.58936 9.97172 13.62701 9.865234 13.66211 C 9.758764 13.69721 9.651901 13.72901 9.544922 13.75781 L 9.429688 13.33008 C 9.528798 13.30348 9.627852 13.27273 9.726562 13.24023 C 9.825265 13.20769 9.922048 13.17227 10.01758 13.13477 z M 10.77539 13.2793 L 10.98242 13.67383 C 10.87695 13.72919 10.76786 13.78213 10.6582 13.83203 C 10.54854 13.88197 10.43905 13.9273 10.32812 13.9707 L 10.16602 13.55664 C 10.26936 13.51637 10.3724 13.47433 10.47461 13.42773 C 10.57683 13.38109 10.67719 13.3308 10.77539 13.2793 z M 6.976562 13.42188 C 7.178555 13.46038 7.383205 13.48841 7.589844 13.50391 L 7.556641 13.94727 C 7.773126 13.96365 7.990336 13.96973 8.208984 13.96289 L 8.224609 14.40625 C 7.98393 14.41455 7.74399 14.40924 7.505859 14.39062 L 7.541016 13.94727 C 7.546196 13.94767 7.551458 13.94687 7.556641 13.94727 C 7.333248 13.93047 7.11087 13.90087 6.892578 13.85938 L 6.976562 13.42188 z M 8.824219 13.45703 L 8.890625 13.89648 C 8.668284 13.93018 8.44585 13.95098 8.224609 13.95898 L 8.207031 13.51562 C 8.411657 13.50783 8.618503 13.48843 8.824219 13.45703 z M 6.228516 13.69531 C 6.441378 13.76163 6.657541 13.81717 6.876953 13.85938 L 6.794922 14.29492 C 6.559212 14.24955 6.326275 14.19034 6.097656 14.11914 L 6.228516 13.69531 z M 9.53125 13.76562 L 9.644531 14.19531 C 9.410934 14.25769 9.176803 14.3067 8.941406 14.3418 L 8.875 13.90234 C 9.093946 13.86972 9.313896 13.82362 9.53125 13.76562 z"
       id="rect1045" />
    <path
       class="error"
       style="opacity:0.3357039"
       d="m 7.491502,3.014086 c -0.09373,0.0095 -0.186546,0.02177 -0.278537,0.0363 l 0.06943,0.438858 c 0.08391,-0.01327 0.168599,-0.02427 0.254195,-0.03304 0.0856,-0.0087 0.170922,-0.01504 0.255786,-0.01897 L 7.771797,2.993396 c -0.09303,0.0041 -0.186551,0.0111 -0.280288,0.02069 z M 6.663654,3.16899 C 6.481381,3.219183 6.303608,3.279321 6.130881,3.348639 L 6.296307,3.760932 C 6.453603,3.697805 6.61547,3.643156 6.781533,3.597421 Z m 1.670083,-0.170315 -0.029,0.4434 c 0.17189,0.01126 0.341451,0.0321 0.50825,0.0622 L 8.891771,3.067069 C 8.708607,3.034037 8.522363,3.011042 8.333702,2.998669 Z M 5.621698,3.587164 C 5.455959,3.676581 5.29609,3.774876 5.142719,3.881479 L 5.396212,4.246407 C 5.535959,4.149269 5.681574,4.059649 5.832532,3.978217 Z M 9.438662,3.197904 9.310946,3.623477 c 0.164288,0.04932 0.325,0.107665 0.481487,0.174593 L 9.967197,3.389465 C 9.795455,3.316017 9.619044,3.252019 9.438662,3.197904 Z M 4.699843,4.227755 C 4.558675,4.351459 4.424718,4.48275 4.298535,4.621074 L 4.626806,4.920635 C 4.741864,4.794505 4.864085,4.674652 4.992771,4.561884 Z M 10.47085,3.63921 10.25141,4.025596 c 0.14879,0.08446 0.29269,0.177182 0.43084,0.277489 L 10.94329,3.943423 C 10.79178,3.83342 10.63409,3.731868 10.47085,3.63921 Z M 3.943484,5.05677 C 3.83348,5.208278 3.731928,5.365981 3.63927,5.529213 L 4.025656,5.748661 C 4.110126,5.599861 4.202837,5.455962 4.303144,5.31781 Z m 7.435346,-0.75828 -0.2994,0.328257 c 0.12613,0.115058 0.24599,0.237278 0.35874,0.365964 L 11.77231,4.699785 C 11.64861,4.558617 11.51716,4.424678 11.37883,4.29849 Z M 3.389524,6.032872 C 3.316078,6.204606 3.252075,6.381024 3.19796,6.561408 L 3.623522,6.68896 C 3.67284,6.524671 3.731187,6.363959 3.79811,6.20748 Z M 12.11842,5.142679 11.75366,5.396152 c 0.0971,0.139748 0.18675,0.285365 0.26819,0.436327 L 12.4129,5.62164 C 12.32348,5.455898 12.22504,5.296048 12.11842,5.142679 Z m -9.051306,1.96542 c -0.03304,0.183163 -0.05601,0.369564 -0.06838,0.558225 l 0.443407,0.029 c 0.01125,-0.17187 0.03209,-0.341439 0.06218,-0.508238 z M 12.6514,6.130666 12.23913,6.296253 c 0.0631,0.157291 0.11778,0.319156 0.1635,0.485219 L 12.83107,6.663591 C 12.78085,6.48132 12.72074,6.303387 12.6514,6.130666 Z M 2.993468,8.228271 c 0.0041,0.09303 0.0111,0.186384 0.02064,0.280126 0.0095,0.09374 0.02177,0.186714 0.03635,0.278697 L 3.489307,8.717656 C 3.476033,8.63375 3.464989,8.548908 3.456277,8.463305 3.447565,8.377711 3.441239,8.292541 3.437299,8.207682 Z m 9.956192,-1.015365 -0.43885,0.06944 c 0.0132,0.08389 0.0243,0.168599 0.0329,0.254194 0.008,0.08562 0.0151,0.170929 0.019,0.255787 l 0.44382,-0.02061 c -0.004,-0.09304 -0.0113,-0.186531 -0.0208,-0.280272 -0.01,-0.09374 -0.0215,-0.186565 -0.0362,-0.278549 z M 3.597466,9.218365 3.169051,9.336406 C 3.219241,9.518678 3.279381,9.696457 3.3487,9.869175 L 3.760988,9.703752 C 3.697865,9.546452 3.643201,9.384433 3.597466,9.218365 Z M 12.55797,8.304549 c -0.0113,0.171882 -0.0321,0.341609 -0.0622,0.508408 l 0.4372,0.07878 c 0.0329,-0.183163 0.0561,-0.369408 0.0684,-0.558061 z m -8.579713,1.862811 -0.391033,0.211 c 0.08942,0.16574 0.187713,0.32561 0.294314,0.47897 L 4.24645,10.60369 C 4.149313,10.46393 4.059693,10.31832 3.978257,10.16736 Z M 12.37659,9.310885 c -0.0493,0.164285 -0.10766,0.325001 -0.1746,0.481481 l 0.40846,0.174776 c 0.0734,-0.171736 0.1376,-0.34817 0.19171,-0.528543 z M 4.561944,11.00729 4.227811,11.30022 c 0.123705,0.14116 0.254996,0.27512 0.393321,0.4013 L 4.920694,11.37325 C 4.794566,11.2582 4.674711,11.13597 4.561944,11.00729 Z m 7.412526,-0.75595 c -0.0845,0.14879 -0.17718,0.2927 -0.2775,0.43085 l 0.35951,0.26105 c 0.11,-0.15151 0.21171,-0.30922 0.30438,-0.47246 z m -6.6566,1.44557 -0.261057,0.3595 c 0.151507,0.11001 0.309224,0.21171 0.472456,0.30438 l 0.219452,-0.38638 c -0.1488,-0.0845 -0.292702,-0.1772 -0.430851,-0.2775 z m 6.05545,-0.61754 c -0.11506,0.12611 -0.23728,0.24598 -0.36597,0.35875 l 0.29293,0.33412 c 0.14117,-0.1237 0.27511,-0.25516 0.40129,-0.39348 z m -5.165782,1.12257 -0.17462,0.40843 c 0.171732,0.0734 0.348165,0.13761 0.528546,0.19172 L 6.68902,12.37653 C 6.524732,12.32722 6.364018,12.26887 6.207538,12.20194 Z m 4.396222,-0.44833 c -0.13976,0.0971 -0.28538,0.18674 -0.43633,0.26818 l 0.21099,0.39104 c 0.16574,-0.0894 0.32559,-0.18787 0.47897,-0.29447 z m -3.416653,0.74212 -0.0788,0.43719 c 0.183159,0.0329 0.369405,0.0561 0.558065,0.0684 l 0.02899,-0.4434 c -0.171881,-0.0113 -0.341446,-0.0321 -0.508245,-0.0622 z m 2.51671,-0.25666 c -0.157293,0.0631 -0.319156,0.11777 -0.485219,0.16351 l 0.117881,0.42843 c 0.182271,-0.0503 0.360039,-0.11033 0.53276,-0.17965 z m -1.496074,0.32369 0.02061,0.44384 c 0.09303,-0.004 0.186375,-0.0113 0.280116,-0.0208 0.09374,-0.009 0.186722,-0.0216 0.278706,-0.0362 l -0.06944,-0.43886 c -0.08389,0.0133 -0.168764,0.0244 -0.254359,0.0329 -0.08563,0.008 -0.170756,0.0151 -0.255623,0.019 z"
       id="path1083" />
    <path
       class="error"
       style="opacity:0.5577622"
       d="m 6.827255,2.627378 c -0.101019,0.02204 -0.200734,0.04672 -0.29922,0.07398 l 0.118596,0.428254 c 0.09061,-0.0251 0.182339,-0.04775 0.275361,-0.06805 0.09303,-0.02028 0.186032,-0.03796 0.278852,-0.05289 L 7.13026,2.569944 C 7.029379,2.586171 6.928272,2.605313 6.827255,2.627378 Z M 5.943849,2.898844 C 5.751357,2.976159 5.564966,3.063607 5.385261,3.160585 L 5.596338,3.551653 C 5.761416,3.462568 5.932536,3.382106 6.109421,3.311055 Z m 1.799769,-0.392717 0.0212,0.443717 c 0.190411,-0.0091 0.379496,-0.0072 0.566676,0.0052 l 0.029,-0.443441 C 8.156728,2.498252 7.950855,2.496436 7.74365,2.506403 Z m -2.8838,0.977722 C 4.69021,3.601869 4.528125,3.728887 4.374133,3.864117 L 4.667358,4.197996 C 4.808885,4.073712 4.957647,3.957044 5.113465,3.848618 Z M 8.972814,2.586381 8.894024,3.023695 c 0.186817,0.03365 0.370829,0.07772 0.551273,0.131746 L 9.572761,2.729759 C 9.376439,2.670972 9.176167,2.623017 8.972814,2.586381 Z M 3.934192,4.296463 C 3.795622,4.448822 3.665857,4.608725 3.54543,4.77517 L 3.90547,5.035489 C 4.01622,4.882419 4.135635,4.735511 4.263038,4.595428 Z M 10.15281,2.939535 9.978404,3.348317 c 0.174176,0.07428 0.343936,0.158088 0.508376,0.25111 L 10.70565,3.212791 C 10.52684,3.111639 10.34226,3.020323 10.15281,2.939535 Z M 3.212468,5.293993 C 3.111323,5.472807 3.020007,5.657387 2.939218,5.846831 L 3.347964,6.021076 C 3.42224,5.846892 3.506089,5.677311 3.59911,5.512864 Z m 8.012012,-1.74824 -0.26049,0.360076 c 0.15308,0.110744 0.30012,0.229952 0.44019,0.357353 l 0.299,-0.328673 C 11.55083,3.795939 11.39093,3.666173 11.22448,3.545753 Z M 2.729441,6.426891 C 2.670655,6.623214 2.6227,6.823477 2.586065,7.02683 L 3.023341,7.10544 C 3.056996,6.918622 3.101056,6.73461 3.155087,6.554175 Z M 12.13553,4.37445 11.80161,4.667505 c 0.12428,0.141525 0.241,0.29046 0.34942,0.446279 L 12.5158,4.860137 C 12.39778,4.690528 12.27077,4.528444 12.13553,4.37445 Z M 2.511068,7.639177 c -0.01332,0.20377 -0.01514,0.409643 -0.0052,0.616849 l 0.443888,-0.02121 c -0.0091,-0.190409 -0.0075,-0.379451 0.0046,-0.56664 z M 12.83889,5.385619 12.44799,5.596658 c 0.0891,0.165076 0.16937,0.336235 0.24043,0.51312 L 13.1008,5.944166 C 13.02349,5.751676 12.93587,5.565325 12.83889,5.385619 Z M 2.569626,8.869386 c 0.01624,0.100881 0.03537,0.201812 0.05739,0.302827 0.02203,0.101018 0.04672,0.200908 0.07401,0.299395 L 3.12928,9.353008 C 3.104185,9.262405 3.081475,9.170499 3.061205,9.077476 3.040929,8.984453 3.0233,8.89162 3.008356,8.798796 Z M 13.29812,6.528391 12.87005,6.646946 c 0.025,0.09062 0.0478,0.182341 0.0681,0.275364 0.0203,0.09303 0.0379,0.186038 0.0529,0.278853 L 13.4296,7.130593 C 13.4132,7.029722 13.3944,6.92857 13.3724,6.827547 13.3504,6.726528 13.3255,6.626851 13.2982,6.528373 Z M 3.310909,9.890175 2.898523,10.05578 c 0.07732,0.19251 0.164767,0.3789 0.261744,0.55859 L 3.551332,10.4033 C 3.462251,10.23822 3.381961,10.06707 3.310909,9.890175 Z M 13.04963,7.76517 c 0.009,0.19041 0.007,0.379452 -0.004,0.566632 l 0.44328,0.029 c 0.0133,-0.203768 0.0153,-0.409685 0.005,-0.616883 z M 3.848264,10.886 3.483533,11.13982 c 0.11802,0.16962 0.245036,0.33169 0.380262,0.48569 L 4.19768,11.33228 C 4.073395,11.19075 3.956686,11.04181 3.848264,10.886 Z M 12.97595,8.894322 c -0.0337,0.186817 -0.0777,0.370836 -0.13174,0.55126 l 0.42568,0.12749 c 0.0588,-0.196331 0.10674,-0.396591 0.14338,-0.599943 z M 4.595108,11.7366 4.296104,12.06528 c 0.15236,0.13858 0.312264,0.26833 0.47871,0.38875 L 5.03517,12.09417 C 4.882099,11.98342 4.735193,11.864 4.595108,11.7366 Z M 12.65133,9.978714 c -0.0743,0.174166 -0.15825,0.343966 -0.25128,0.508416 l 0.38677,0.21866 c 0.10114,-0.17882 0.19247,-0.36339 0.27326,-0.55283 z M 5.512511,12.40035 5.293675,12.78717 c 0.178815,0.10115 0.363395,0.19246 0.55284,0.27325 l 0.17424,-0.40875 C 5.846577,12.5774 5.676956,12.49338 5.512511,12.40035 Z M 12.09382,10.9643 c -0.11075,0.15307 -0.23013,0.30015 -0.35753,0.44023 l 0.32885,0.29897 c 0.13857,-0.15237 0.26834,-0.31227 0.38875,-0.47872 z m -5.539764,1.88022 -0.127526,0.4255 c 0.196326,0.0588 0.396634,0.10692 0.599985,0.14356 l 0.07864,-0.43727 C 6.918332,12.94263 6.734492,12.8986 6.554056,12.84452 Z m 4.777914,-1.04255 c -0.14153,0.12427 -0.29046,0.24098 -0.44628,0.3494 l 0.25382,0.36473 c 0.16961,-0.118 0.33166,-0.2452 0.48566,-0.38043 z m -3.664163,1.24299 -0.02899,0.44343 c 0.203771,0.0133 0.409687,0.0153 0.616894,0.005 L 8.234501,13.0495 c -0.190418,0.01 -0.3795,0.007 -0.566678,-0.005 z m 2.735143,-0.59682 c -0.16507,0.0891 -0.33619,0.16953 -0.513084,0.24059 l 0.165614,0.41239 c 0.1925,-0.0773 0.37884,-0.16494 0.55855,-0.26193 z m -1.604468,0.54315 0.07057,0.43856 c 0.100881,-0.0163 0.201821,-0.0354 0.302843,-0.0574 0.101019,-0.022 0.200912,-0.0468 0.299381,-0.074 L 9.352721,12.87032 c -0.09062,0.025 -0.182505,0.0478 -0.275528,0.0681 -0.09304,0.0203 -0.185872,0.0378 -0.278689,0.0528 z"
       id="path1077" />
    <path
       class="error"
       style="opacity:0.6431564"
       d="M 6.134845,2.337417 C 6.028368,2.37247 5.923611,2.410067 5.820453,2.45048 l 0.162019,0.413865 c 0.09555,-0.03744 0.192617,-0.07255 0.291323,-0.105062 0.09871,-0.03251 0.197827,-0.06201 0.296922,-0.08868 L 6.455081,2.241456 C 6.348095,2.270235 6.241328,2.302343 6.134845,2.337417 Z M 5.212514,2.72885 C 5.01358,2.833761 4.822365,2.949012 4.639419,3.073685 l 0.250292,0.36718 C 5.05892,3.325551 5.235661,3.219028 5.419724,3.121962 Z M 7.109457,2.104073 7.17641,2.543378 C 7.382127,2.512058 7.587584,2.492718 7.7922,2.484898 L 7.7753,2.040847 c -0.221231,0.0084 -0.44351,0.0294 -0.66585,0.06322 z M 4.108785,3.481057 C 3.939083,3.627291 3.778625,3.782346 3.627688,3.945397 l 0.325918,0.30178 C 4.093277,4.096298 4.241975,3.95276 4.398953,3.817492 Z M 8.443981,2.053215 8.410734,2.496174 c 0.206643,0.01551 0.411348,0.04262 0.613343,0.081 L 9.10702,2.140719 C 8.888774,2.099282 8.667395,2.06998 8.444006,2.053215 Z M 3.201674,4.460826 C 3.069279,4.640633 2.947194,4.827405 2.835941,5.020371 L 3.220829,5.242406 C 3.323832,5.063741 3.436915,4.890614 3.559473,4.724171 Z M 9.755965,2.3021 9.62469,2.726527 c 0.197484,0.06103 0.39113,0.133135 0.58016,0.215615 L 10.38263,2.534785 C 10.17848,2.445704 9.969301,2.368032 9.755965,2.3021 Z M 2.534771,5.61736 C 2.445686,5.821508 2.368018,6.030688 2.302085,6.244025 L 2.726513,6.375299 C 2.787544,6.177816 2.859585,5.983986 2.942071,5.794962 Z M 10.97944,2.836016 10.75758,3.220842 c 0.17867,0.103004 0.35161,0.21615 0.51806,0.338707 L 11.53917,3.201687 C 11.35935,3.069293 11.1724,2.94727 10.97944,2.836016 Z M 2.140694,6.892951 C 2.099265,7.11124 2.069903,7.332438 2.053137,7.555827 l 0.443018,0.03342 c 0.01551,-0.20663 0.04278,-0.411586 0.08112,-0.613581 z M 12.0546,3.627701 11.75264,3.953683 c 0.15086,0.139669 0.29441,0.288366 0.42968,0.445345 L 12.51893,4.1088 C 12.3727,3.939096 12.21765,3.778644 12.0546,3.627701 Z M 2.040834,8.224685 c 0.0084,0.221224 0.0294,0.443505 0.06322,0.665846 L 2.543363,8.823603 C 2.512043,8.61786 2.49265,8.412221 2.484825,8.207603 Z M 12.9263,4.639432 12.55908,4.889544 c 0.1153,0.169207 0.22189,0.346131 0.31896,0.530193 l 0.3931,-0.207208 C 13.16623,5.013597 13.05098,4.822381 12.9263,4.639432 Z M 2.241385,9.544719 c 0.02878,0.106991 0.06089,0.213753 0.09595,0.320231 0.03505,0.106487 0.07271,0.21142 0.113125,0.31458 L 2.864325,10.01751 C 2.826887,9.921963 2.7919,9.82465 2.759388,9.725943 2.726876,9.627237 2.697257,9.528364 2.670582,9.429272 Z M 13.54928,5.820347 13.13565,5.982488 c 0.0375,0.09554 0.0724,0.19267 0.10484,0.291381 0.0325,0.09872 0.0623,0.197752 0.0889,0.296861 L 13.75836,6.455153 C 13.72952,6.348174 13.69766,6.241341 13.66261,6.134854 13.62754,6.028376 13.5897,5.923509 13.54928,5.820347 Z M 3.121948,10.58026 2.728836,10.78746 c 0.104914,0.19894 0.220157,0.39016 0.344835,0.5731 l 0.36718,-0.25029 C 3.325538,10.94107 3.219008,10.76432 3.121948,10.58026 Z M 13.45662,7.176419 c 0.0314,0.205726 0.0507,0.411175 0.0585,0.615792 l 0.44405,-0.01688 c -0.008,-0.221234 -0.0295,-0.443505 -0.0632,-0.665847 z M 3.817474,11.60104 3.480982,11.89101 c 0.146239,0.16971 0.301351,0.33034 0.464401,0.48129 L 4.247286,12.04613 C 4.096409,11.90646 3.952746,11.758 3.817474,11.60104 Z M 13.50364,8.410792 c -0.0155,0.206635 -0.0425,0.411348 -0.081,0.613343 l 0.43663,0.08294 c 0.0415,-0.21829 0.0707,-0.439661 0.0875,-0.663049 z m -8.779483,4.029718 -0.263346,0.3578 c 0.179806,0.1324 0.36658,0.25448 0.559545,0.36573 L 5.24233,12.77897 C 5.063665,12.67596 4.890598,12.56307 4.724157,12.44051 Z M 13.27328,9.624766 c -0.061,0.197477 -0.13296,0.391064 -0.21543,0.580084 l 0.40717,0.17784 c 0.0891,-0.20415 0.16695,-0.413386 0.23287,-0.626709 z M 5.794951,13.05792 5.617289,13.46504 c 0.204144,0.0891 0.413386,0.16692 0.626715,0.23285 L 6.375221,13.2733 C 6.177745,13.2123 5.98397,13.1404 5.794951,13.05792 Z m 6.984209,-2.30033 c -0.10305,0.17867 -0.21616,0.35161 -0.33872,0.51806 l 0.35787,0.26352 c 0.13239,-0.17981 0.25441,-0.36676 0.36566,-0.55972 z m -5.803487,2.66512 -0.08273,0.43658 c 0.218292,0.0415 0.439482,0.0707 0.662875,0.0875 l 0.03338,-0.44322 c -0.206639,-0.0155 -0.411531,-0.0425 -0.613524,-0.081 z M 12.04613,11.7527 c -0.13967,0.15088 -0.28818,0.29436 -0.44517,0.42963 l 0.29005,0.33667 c 0.1697,-0.14624 0.33034,-0.30135 0.48129,-0.46439 z m -3.838361,1.76239 0.01688,0.44406 c 0.221241,-0.008 0.443521,-0.0295 0.665862,-0.0632 l -0.06693,-0.4393 c -0.205716,0.0314 -0.411175,0.0507 -0.615801,0.0585 z m 2.902491,-0.95596 c -0.1692,0.11532 -0.34594,0.22184 -0.53001,0.3189 l 0.20721,0.39312 c 0.19894,-0.10495 0.39015,-0.22017 0.5731,-0.34485 z m -1.680993,0.77028 0.115569,0.42895 c 0.106979,-0.0288 0.213639,-0.0606 0.320109,-0.0957 0.106486,-0.0351 0.211355,-0.0728 0.314515,-0.11333 L 10.0175,13.13566 c -0.09553,0.0375 -0.192851,0.0724 -0.291553,0.10494 -0.09871,0.0325 -0.19757,0.0622 -0.29668,0.0888 z"
       id="path1071" />
    <path
       class="error"
       style="opacity:0.829164"
       d="M 5.340946,2.16859 C 5.231284,2.218578 5.123748,2.271338 5.018271,2.326656 L 5.224538,2.720064 C 5.32278,2.66852 5.423088,2.6195 5.525302,2.572897 5.627514,2.526283 5.730314,2.482711 5.833633,2.442322 L 5.67206,2.028542 C 5.561129,2.071893 5.450602,2.118586 5.340946,2.16859 Z M 4.401457,2.695387 C 4.201231,2.830882 4.010448,2.976562 3.829633,3.131299 L 4.118486,3.469048 C 4.286674,3.32512 4.464068,3.189501 4.650369,3.063422 Z M 6.354914,1.80464 6.469559,2.233899 C 6.68691,2.175916 6.905435,2.131 7.124384,2.098399 L 7.058991,1.658754 C 6.823598,1.693807 6.588507,1.74232 6.354914,1.80464 Z M 3.310587,3.629018 C 3.146457,3.805234 2.993166,3.989846 2.851059,4.181825 L 3.208216,4.446064 C 3.34045,4.267417 3.483173,4.095643 3.635854,3.931717 Z m 4.46434,-2.035679 0.01546,0.443976 c 0.223877,-0.0078 0.447154,-0.0032 0.66875,0.01441 L 8.49385,1.608808 C 8.255689,1.590192 8.015607,1.584954 7.774932,1.593355 Z M 2.4565,4.78269 C 2.336178,4.990395 2.227626,5.204324 2.131447,5.423606 l 0.407159,0.17857 C 2.628159,5.39801 2.728928,5.19868 2.840927,5.005334 Z M 9.206005,1.705007 9.122021,2.141246 c 0.219423,0.04221 0.43618,0.09676 0.649041,0.163036 L 9.903037,1.879871 C 9.674411,1.808695 9.441714,1.75037 9.206005,1.705007 Z m -7.325911,4.39174 c -0.07118,0.228627 -0.129693,0.46141 -0.17505,0.697119 l 0.436234,0.08398 C 2.183487,6.658435 2.238132,6.441861 2.304397,6.228992 Z M 10.57627,2.131415 10.39788,2.538486 c 0.20416,0.08955 0.40331,0.19041 0.59666,0.302409 L 11.21736,2.456376 C 11.00966,2.336058 10.79554,2.227595 10.57627,2.131415 Z M 1.608932,7.506239 c -0.01862,0.238134 -0.0239,0.478025 -0.01556,0.718695 L 2.037438,8.209699 C 2.029625,7.985817 2.03427,7.76254 2.051849,7.540953 Z M 11.81823,2.85094 11.5538,3.208183 c 0.17865,0.132235 0.35061,0.274871 0.51454,0.42755 L 12.37103,3.310472 C 12.19483,3.146338 12.01022,2.993046 11.81823,2.85094 Z M 1.658879,8.941066 c 0.03505,0.235389 0.08356,0.47048 0.145881,0.704072 L 2.234021,9.530491 C 2.176031,9.31315 2.131033,9.094428 2.098436,8.875481 Z M 12.86876,3.829512 12.53101,4.118372 c 0.14392,0.168178 0.27954,0.345578 0.40562,0.531876 L 13.30468,4.401335 C 13.16917,4.201115 13.02351,4.010323 12.86876,3.829512 Z M 2.028662,10.328 c 0.04335,0.11092 0.08996,0.22126 0.139965,0.33092 0.04998,0.10966 0.102834,0.21739 0.158151,0.32287 l 0.393506,-0.20654 c -0.05153,-0.0982 -0.100749,-0.19847 -0.14736,-0.30068 -0.04661,-0.10222 -0.09,-0.2051 -0.130382,-0.30842 z M 13.6734,5.01815 13.2798,5.224504 c 0.0515,0.09823 0.10072,0.198461 0.14737,0.300676 0.0466,0.102212 0.0901,0.20509 0.13037,0.308421 L 13.97152,5.67194 C 13.92822,5.561004 13.88152,5.450471 13.8315,5.340812 13.7815,5.231153 13.72873,5.123625 13.6734,5.01815 Z M 3.06346,11.34951 2.695507,11.5986 c 0.135501,0.20022 0.281175,0.39101 0.435913,0.57182 L 3.469084,11.88137 C 3.325153,11.7132 3.189534,11.5358 3.06346,11.34951 Z M 13.76608,6.469246 c 0.058,0.217354 0.10294,0.436068 0.13557,0.655023 L 14.3413,7.058909 C 14.30624,6.823503 14.25775,6.588417 14.19542,6.35482 Z M 3.931832,12.36421 3.62905,12.68928 c 0.176221,0.16413 0.360827,0.31742 0.552813,0.45952 L 4.446185,12.79183 C 4.267536,12.6596 4.095759,12.51689 3.931832,12.36421 Z M 13.96275,7.790243 c 0.007,0.223883 0.002,0.447245 -0.0147,0.668833 l 0.44301,0.03446 c 0.0186,-0.238124 0.0239,-0.478024 0.0156,-0.718695 z M 5.005368,13.15894 4.782723,13.54337 c 0.207706,0.12032 0.421823,0.22878 0.641106,0.32496 L 5.602295,13.46146 C 5.39813,13.37191 5.198712,13.27094 5.005368,13.15894 Z M 13.85862,9.121978 c -0.0421,0.219411 -0.0966,0.436089 -0.16285,0.648948 L 14.12,9.902995 C 14.1912,9.674373 14.24969,9.44159 14.29504,9.205876 Z m -7.629495,4.573692 -0.132253,0.4243 c 0.228619,0.0712 0.461403,0.12968 0.697113,0.17505 l 0.0839,-0.43643 c -0.219412,-0.0422 -0.435898,-0.0966 -0.64876,-0.16292 z m 7.232445,-3.2979 c -0.0895,0.20416 -0.1906,0.40339 -0.30259,0.59673 l 0.38451,0.22283 c 0.12032,-0.20771 0.22878,-0.42183 0.32496,-0.6411 z m -5.920594,3.55024 -0.03464,0.44312 c 0.238131,0.0186 0.478026,0.0239 0.718705,0.0156 l -0.01532,-0.44425 c -0.223883,0.007 -0.447165,0.003 -0.668754,-0.0144 z m 5.250894,-2.39432 c -0.13223,0.17864 -0.27495,0.35041 -0.42762,0.51434 l 0.32515,0.30298 c 0.16413,-0.17622 0.31761,-0.36092 0.45971,-0.5529 z m -3.916259,2.34793 0.06554,0.43956 C 9.176548,14.30608 9.411633,14.25768 9.64523,14.1953 L 9.5305,13.76584 C 9.313146,13.82384 9.094519,13.869 8.875573,13.90162 Z M 11.8815,12.53098 c -0.16819,0.14393 -0.34547,0.27926 -0.53177,0.40533 l 0.249,0.36825 c 0.20021,-0.13551 0.391,-0.28118 0.57181,-0.43593 z m -1.71523,1.02653 0.16185,0.41389 c 0.11093,-0.0434 0.22128,-0.09 0.33094,-0.13994 0.10966,-0.0499 0.21738,-0.10283 0.32285,-0.15819 l -0.20655,-0.39349 c -0.0982,0.0515 -0.19845,0.10072 -0.30067,0.14736 -0.10221,0.0466 -0.20508,0.0901 -0.30842,0.13037 z"
       id="path1065" />
  </g>
</svg>
