<?xml version="1.0" encoding="UTF-8" standalone="no"?>
<svg
   xmlns:dc="http://purl.org/dc/elements/1.1/"
   xmlns:cc="http://creativecommons.org/ns#"
   xmlns:rdf="http://www.w3.org/1999/02/22-rdf-syntax-ns#"
   xmlns:svg="http://www.w3.org/2000/svg"
   xmlns="http://www.w3.org/2000/svg"
   xmlns:sodipodi="http://sodipodi.sourceforge.net/DTD/sodipodi-0.dtd"
   xmlns:inkscape="http://www.inkscape.org/namespaces/inkscape"
   inkscape:version="1.1-dev (6039630, 2019-12-20)"
   sodipodi:docname="selection-raise-symbolic.svg"
   viewBox="0 0 16 16"
   height="16"
   width="16"
   id="svg1"
   version="1.1">
  <metadata
     id="metadata6691">
    <rdf:RDF>
      <cc:Work
         rdf:about="">
        <dc:format>image/svg+xml</dc:format>
        <dc:type
           rdf:resource="http://purl.org/dc/dcmitype/StillImage" />
      </cc:Work>
    </rdf:RDF>
  </metadata>
  <defs
     id="defs6689" />
  <style
     id="s0">.base { fill:#000000; }
.success { fill:#009909; }
.warning { fill:#FF1990; }
.error { fill:#00AAFF; }
.dark {  }
</style>
  <style
     id="s2">
@import '../../highlights.css';
</style>
  <sodipodi:namedview
     inkscape:current-layer="svg1"
     inkscape:window-maximized="1"
     inkscape:window-y="-6"
     inkscape:window-x="65"
     inkscape:window-height="890"
     inkscape:window-width="1296"
     inkscape:cy="7.7602509"
     inkscape:cx="8.333963"
     inkscape:zoom="27.166187"
     showgrid="true"
     id="namedview"
     guidetolerance="10"
     gridtolerance="10"
     objecttolerance="10">
    <inkscape:grid
       id="grid"
       type="xygrid" />
  </sodipodi:namedview>
  <g
     id="selection-raise"
     inkscape:label="00060"
     transform="translate(-135,-627.3622)">
    <path
       transform="translate(0,512.3622)"
       style="opacity:0;fill:none"
       d="m 135,115 h 16 v 16 h -16 z"
       id="rect12058"
       inkscape:connector-curvature="0" />
    <path
       style="opacity:0.5"
       d="m 136,628.36218 h 5 v 2 h -5 z"
       id="rect12060"
       inkscape:connector-curvature="0" />
    <path
       style="opacity:1"
       d="m 136,632.36218 h 13 v 2 h -13 z"
       id="rect12062"
       inkscape:connector-curvature="0" />
    <path
       style="opacity:0.5"
       d="m 136,636.36218 h 5 v 2 h -5 z"
       id="rect12064"
       inkscape:connector-curvature="0" />
    <path
       style="opacity:0.5"
       d="m 136,640.36218 h 5 v 2 h -5 z"
       id="rect12066"
       inkscape:connector-curvature="0" />
    <path
       class="success"
       style="opacity:1"
       d="m 145,642.3622 h 2 v -4 h 2 l -3,-2.9884 -3,2.9884 h 2 z"
       id="path12074"
       inkscape:connector-curvature="0" />
  </g>
</svg>
