<?xml version="1.0" encoding="UTF-8" standalone="no"?>
<svg
   xmlns:dc="http://purl.org/dc/elements/1.1/"
   xmlns:cc="http://creativecommons.org/ns#"
   xmlns:rdf="http://www.w3.org/1999/02/22-rdf-syntax-ns#"
   xmlns:svg="http://www.w3.org/2000/svg"
   xmlns="http://www.w3.org/2000/svg"
   xmlns:sodipodi="http://sodipodi.sourceforge.net/DTD/sodipodi-0.dtd"
   xmlns:inkscape="http://www.inkscape.org/namespaces/inkscape"
   version="1.1"
   id="svg1"
   width="16"
   height="16"
   viewBox="0 0 16 16"
   sodipodi:docname="symbol-remove-symbolic.svg"
   inkscape:version="1.1-dev (1fceb22, 2019-12-30)">
  <metadata
     id="metadata2928">
    <rdf:RDF>
      <cc:Work
         rdf:about="">
        <dc:format>image/svg+xml</dc:format>
        <dc:type
           rdf:resource="http://purl.org/dc/dcmitype/StillImage" />
      </cc:Work>
    </rdf:RDF>
  </metadata>
  <defs
     id="defs2926" />
  <style
     id="s0">.base { fill:#000000; }
.success { fill:#009909; }
.warning { fill:#FF1990; }
.error { fill:#00AAFF; }
.dark {  }
</style>
  <style
     id="s2">
@import '../../highlights.css';
</style>
  <sodipodi:namedview
     objecttolerance="10"
     gridtolerance="10"
     guidetolerance="10"
     id="namedview"
     showgrid="true"
     inkscape:zoom="42.558989"
     inkscape:cx="6.8083991"
     inkscape:cy="7.9844444"
     inkscape:window-width="1858"
     inkscape:window-height="1177"
     inkscape:window-x="54"
     inkscape:window-y="-8"
     inkscape:window-maximized="1"
     inkscape:current-layer="svg1">
    <inkscape:grid
       type="xygrid"
       id="grid" />
  </sodipodi:namedview>
  <g
     id="symbol-remove"
     inkscape:label="00341"
     transform="matrix(1.0101526,1.0101526,-1.0606602,1.0606602,10.12132,-15.834524)"
     style="stroke-width:0.68313">
    <title
       id="title48573">object-unsymbol</title>
    <rect
       style="opacity:1;stroke-width:0.258191;stroke-linecap:round;paint-order:markers fill stroke"
       id="rect3500"
       width="7"
       height="2"
       x="7"
       y="11"
       class="warning" />
  </g>
  <g
     style="stroke-width:0.68313"
     transform="matrix(-1.0101526,1.0101526,1.0606602,1.0606602,5.8786798,-15.834524)"
     inkscape:label="00341"
     id="symbol-remove-4">
    <title
       id="title48573-9">object-unsymbol</title>
    <rect
       class="warning"
       y="11"
       x="7"
       height="2"
       width="7"
       id="rect3500-0"
       style="opacity:1;stroke-width:0.258191;stroke-linecap:round;paint-order:markers fill stroke" />
  </g>
</svg>
