<?xml version="1.0" encoding="UTF-8" standalone="no"?>
<svg
   xmlns:dc="http://purl.org/dc/elements/1.1/"
   xmlns:cc="http://creativecommons.org/ns#"
   xmlns:rdf="http://www.w3.org/1999/02/22-rdf-syntax-ns#"
   xmlns:svg="http://www.w3.org/2000/svg"
   xmlns="http://www.w3.org/2000/svg"
   xmlns:sodipodi="http://sodipodi.sourceforge.net/DTD/sodipodi-0.dtd"
   xmlns:inkscape="http://www.inkscape.org/namespaces/inkscape"
   version="1.1"
   id="svg1"
   width="16"
   height="16"
   viewBox="0 0 16 16"
   sodipodi:docname="text_rotation-symbolic.svg"
   inkscape:version="1.1-dev (6039630, 2019-12-20)">
  <metadata
     id="metadata7199">
    <rdf:RDF>
      <cc:Work
         rdf:about="">
        <dc:format>image/svg+xml</dc:format>
        <dc:type
           rdf:resource="http://purl.org/dc/dcmitype/StillImage" />
      </cc:Work>
    </rdf:RDF>
  </metadata>
  <defs
     id="defs7197">
    <inkscape:path-effect
       effect="attach_path"
       id="path-effect8338"
       lpeversion="1" />
    <marker
       inkscape:stockid="TriangleOutS"
       orient="auto"
       refY="0.0"
       refX="0.0"
       id="marker8286"
       style="overflow:visible"
       inkscape:isstock="true">
      <path
         id="path8284"
         d="M 5.77,0.0 L -2.88,5.0 L -2.88,-5.0 L 5.77,0.0 z "
         style="fill-rule:evenodd;stroke:#009909;stroke-width:1pt;stroke-opacity:1;fill:#009909;fill-opacity:1"
         transform="scale(0.2)" />
    </marker>
    <marker
       inkscape:stockid="TriangleOutS"
       orient="auto"
       refY="0.0"
       refX="0.0"
       id="TriangleOutS"
       style="overflow:visible"
       inkscape:isstock="true">
      <path
         id="path7914"
         d="M 5.77,0.0 L -2.88,5.0 L -2.88,-5.0 L 5.77,0.0 z "
         style="fill-rule:evenodd;stroke:#009909;stroke-width:1pt;stroke-opacity:1;fill:#009909;fill-opacity:1"
         transform="scale(0.2)" />
    </marker>
    <marker
       inkscape:stockid="TriangleInS"
       orient="auto"
       refY="0.0"
       refX="0.0"
       id="TriangleInS"
       style="overflow:visible"
       inkscape:isstock="true">
      <path
         id="path7905"
         d="M 5.77,0.0 L -2.88,5.0 L -2.88,-5.0 L 5.77,0.0 z "
         style="fill-rule:evenodd;stroke:#009909;stroke-width:1pt;stroke-opacity:1;fill:#009909;fill-opacity:1"
         transform="scale(-0.2)" />
    </marker>
    <marker
       inkscape:stockid="TriangleInM"
       orient="auto"
       refY="0.0"
       refX="0.0"
       id="TriangleInM"
       style="overflow:visible"
       inkscape:isstock="true">
      <path
         id="path7902"
         d="M 5.77,0.0 L -2.88,5.0 L -2.88,-5.0 L 5.77,0.0 z "
         style="fill-rule:evenodd;stroke:#000000;stroke-width:1pt;stroke-opacity:1;fill:#000000;fill-opacity:1"
         transform="scale(-0.4)" />
    </marker>
    <inkscape:path-effect
       effect="join_type"
       id="path-effect7764"
       is_visible="true"
       lpeversion="1"
       linecap_type="butt"
       line_width="0"
       linejoin_type="extrp_arc"
       miter_limit="100"
       attempt_force_join="true" />
  </defs>
  <style
     id="s0">.base { fill:#000000; }
.success { fill:#009909; }
.warning { fill:#FF1990; }
.error { fill:#00AAFF; }
.dark {  }
</style>
  <style
     id="s2">
@import '../../highlights.css';
</style>
  <sodipodi:namedview
     objecttolerance="10"
     gridtolerance="10"
     guidetolerance="10"
     id="namedview"
     showgrid="true"
     inkscape:zoom="43.1875"
     inkscape:cx="8"
     inkscape:cy="8.0115774"
     inkscape:window-width="1296"
     inkscape:window-height="890"
     inkscape:window-x="65"
     inkscape:window-y="-6"
     inkscape:window-maximized="1"
     inkscape:current-layer="svg1"
     inkscape:snap-global="false">
    <inkscape:grid
       type="xygrid"
       id="grid" />
  </sodipodi:namedview>
  <g
     transform="translate(-499,-836.36218)"
     id="text_rotation"
     inkscape:label="00183">
    <path
       inkscape:connector-curvature="0"
       id="rect21524"
       d="m 499,836.36218 h 16 v 16 h -16 z"
       style="opacity:0;fill:none" />
    <path
       inkscape:connector-curvature="0"
       id="path21526"
       d="M 501.5031,840.3681 499,847.3577 h 1.5019 c 0.744,-1.997 0,10e-4 0.7423,-1.9955 l 2.5586,0.018 0.7041,1.9775 h 1.5018 l -2.5031,-6.9896 z m 1.0013,1.4978 1.0123,2.4963 h -2.0025 z"
       style="opacity:0.5" />
    <path
       style="opacity:1"
       d="m 512.3642,842.2559 -5.0038,5.5892 1.4117,0.5519 c 1.4568,-1.5864 0,2e-4 1.4547,-1.5856 l 2.3981,0.957 -0.088,2.1002 1.4117,0.5519 0.2982,-7.4287 z m 0.3731,1.7627 v 2.6966 l -1.8823,-0.7358 z"
       id="path21528"
       inkscape:connector-curvature="0" />
    <path
       inkscape:connector-curvature="0"
       id="rect21532"
       d="m 499,848.36218 h 8 v 1 h -8 z"
       style="opacity:0.5" />
    <path
       inkscape:connector-curvature="0"
       id="rect21539"
       d="m 790.58676,608.74039 7.82373,0.14749 v 1.03813 l -7.44508,-0.25265 z"
       style="opacity:1"
       transform="matrix(0.9327962,0.3604044,-0.378579,0.925569,0,0)"
       sodipodi:nodetypes="ccccc" />
    <path
       style="opacity:1;fill-rule:nonzero;stroke:#009909;stroke-width:1;stroke-miterlimit:4;stroke-dasharray:none;stroke-opacity:1"
       d="m 504.36973,839.66985 c 2.36576,-1.0638 4.30898,-0.47743 5.533,1.44917 v 0 c -1.22402,-1.9266 -3.16724,-2.51297 -5.533,-1.44917 z"
       id="path7762"
       inkscape:connector-curvature="0"
       sodipodi:nodetypes="cc"
       inkscape:original-d="m 504.36973,839.66985 c 2.36576,-1.0638 4.30898,-0.47743 5.533,1.44917"
       inkscape:path-effect="#path-effect7764"
       class="success "
       transform="translate(-0.36474165,-1.1671733)" />
  </g>
  <path
     sodipodi:type="star"
     style="opacity:1;fill-rule:evenodd;stroke:none;stroke-width:1;stroke-miterlimit:4;stroke-dasharray:none;stroke-opacity:1"
     id="path8336"
     sodipodi:sides="3"
     sodipodi:cx="8.8510637"
     sodipodi:cy="6.3465047"
     sodipodi:r1="1.5378858"
     sodipodi:r2="0.76894289"
     sodipodi:arg1="0.52359878"
     sodipodi:arg2="1.5707963"
     inkscape:flatsided="true"
     inkscape:rounded="0"
     inkscape:randomized="0"
     inkscape:transform-center-y="2.0824734"
     class="success"
     d="m 10.182912,7.1154476 -2.6636964,0 1.3318481,-2.3068287 z"
     transform="matrix(-1.3140192,0.77182612,-0.77182612,-1.3140192,27.369629,5.5398991)"
     inkscape:transform-center-x="1.7290268" />
</svg>
