<?xml version="1.0" encoding="UTF-8" standalone="no"?>
<svg
   xmlns:dc="http://purl.org/dc/elements/1.1/"
   xmlns:cc="http://creativecommons.org/ns#"
   xmlns:rdf="http://www.w3.org/1999/02/22-rdf-syntax-ns#"
   xmlns:svg="http://www.w3.org/2000/svg"
   xmlns="http://www.w3.org/2000/svg"
   xmlns:sodipodi="http://sodipodi.sourceforge.net/DTD/sodipodi-0.dtd"
   xmlns:inkscape="http://www.inkscape.org/namespaces/inkscape"
   inkscape:version="1.1-dev (6039630, 2019-12-20)"
   sodipodi:docname="text_subscript-symbolic.svg"
   viewBox="0 0 16 16"
   height="16"
   width="16"
   id="svg1"
   version="1.1">
  <metadata
     id="metadata4538">
    <rdf:RDF>
      <cc:Work
         rdf:about="">
        <dc:format>image/svg+xml</dc:format>
        <dc:type
           rdf:resource="http://purl.org/dc/dcmitype/StillImage" />
      </cc:Work>
    </rdf:RDF>
  </metadata>
  <defs
     id="defs4536" />
  <style
     id="s0">
.base { fill:#000000; }
.success { fill:#009909; }
.warning { fill:#FF1990; }
.error { fill:#00AAFF; }
.dark { }
</style>
  <style
     id="s2">
@import '../../highlights.css';
</style>
  <sodipodi:namedview
     inkscape:current-layer="svg1"
     inkscape:window-maximized="1"
     inkscape:window-y="-6"
     inkscape:window-x="65"
     inkscape:window-height="890"
     inkscape:window-width="1296"
     inkscape:cy="8"
     inkscape:cx="8"
     inkscape:zoom="41.125"
     showgrid="true"
     id="namedview"
     guidetolerance="10"
     gridtolerance="10"
     objecttolerance="10">
    <inkscape:grid
       id="grid"
       type="xygrid" />
  </sodipodi:namedview>
  <g
     inkscape:label="00187"
     id="text_subscript"
     transform="matrix(1,0,0,0.999999,-589,-836.36113)">
    <path
       style="opacity:0;fill:none"
       d="m 589,836.36218 h 16 v 16 h -16 z"
       id="rect15884"
       inkscape:connector-curvature="0" />
    <path
       style="opacity:0.5"
       d="m 589,841.3622 2.6875,3.5 -2.6875,3.5 h 2.6562 l 1.3438,-1.75 1.3437,1.75 H 597 l -2.6875,-3.5 2.6875,-3.5 h -2.6563 l -1.3437,1.75 -1.3438,-1.75 z"
       id="path15886"
       inkscape:connector-curvature="0" />
    <path
       style="opacity:1"
       d="m 595.9062,844.3622 3.4032,4.5745 -2.3094,3.4255 h 2.8772 l 5.1228,-8 h -2.5237 l -1.9062,2.9763 -2.0076,-2.9763 z"
       id="path15888"
       inkscape:connector-curvature="0" />
  </g>
</svg>
