<?xml version="1.0" encoding="UTF-8" standalone="no"?>
<svg
   xmlns:dc="http://purl.org/dc/elements/1.1/"
   xmlns:cc="http://creativecommons.org/ns#"
   xmlns:rdf="http://www.w3.org/1999/02/22-rdf-syntax-ns#"
   xmlns:svg="http://www.w3.org/2000/svg"
   xmlns="http://www.w3.org/2000/svg"
   xmlns:sodipodi="http://sodipodi.sourceforge.net/DTD/sodipodi-0.dtd"
   xmlns:inkscape="http://www.inkscape.org/namespaces/inkscape"
   inkscape:version="1.1-dev (6039630, 2019-12-20)"
   sodipodi:docname="window-new-symbolic.svg"
   viewBox="0 0 16 16"
   height="16"
   width="16"
   id="svg1"
   version="1.1">
  <metadata
     id="metadata9868">
    <rdf:RDF>
      <cc:Work
         rdf:about="">
        <dc:format>image/svg+xml</dc:format>
        <dc:type
           rdf:resource="http://purl.org/dc/dcmitype/StillImage" />
      </cc:Work>
    </rdf:RDF>
  </metadata>
  <defs
     id="defs9866" />
  <style
     id="s0">
.base { fill:#000000; }
.success { fill:#009909; }
.warning { fill:#FF1990; }
.error { fill:#00AAFF; }
.dark { }
</style>
  <style
     id="s2">
@import '../../highlights.css';
</style>
  <sodipodi:namedview
     inkscape:current-layer="svg1"
     inkscape:window-maximized="1"
     inkscape:window-y="-6"
     inkscape:window-x="65"
     inkscape:window-height="890"
     inkscape:window-width="1296"
     inkscape:cy="8"
     inkscape:cx="8"
     inkscape:zoom="41.125"
     showgrid="true"
     id="namedview"
     guidetolerance="10"
     gridtolerance="10"
     objecttolerance="10">
    <inkscape:grid
       id="grid"
       type="xygrid" />
  </sodipodi:namedview>
  <g
     id="window-new"
     inkscape:label="00038"
     transform="matrix(0.999816,0,0,1,-74.983283,-827.36218)">
    <g
       id="g17703"
       transform="matrix(0.9985297,0,0,1,60.04264,220)">
      <path
         style="opacity:0;fill:none"
         d="m 14.97644,607.36218 h 16 v 16 h -16 z"
         id="rect17705"
         inkscape:connector-curvature="0" />
      <path
         style="opacity:0.5"
         d="m 17,615.3622 h 5.99117 v 1 H 17 Z"
         id="path17707"
         inkscape:connector-curvature="0" />
      <path
         style="opacity:1"
         d="m 15,613.36218 h 1 v 10 h -1 z"
         id="rect17709"
         inkscape:connector-curvature="0" />
      <path
         style="opacity:1"
         d="m 15,613.36218 h 8.992638 v 1 H 15 Z"
         id="rect17711"
         inkscape:connector-curvature="0" />
      <path
         style="opacity:1"
         d="m 23.99264,613.36218 h 1 v 10 h -1 z"
         id="rect17713"
         inkscape:connector-curvature="0" />
      <path
         style="opacity:1"
         d="m 15,622.36218 h 8.992638 v 1 H 15 Z"
         id="rect17715"
         inkscape:connector-curvature="0" />
    </g>
    <path
       style="opacity:1"
       d="m 83,830.36218 h 8 v 2 h -8 z"
       id="rect17727"
       inkscape:connector-curvature="0" />
    <path
       style="opacity:1"
       d="m 86,827.36218 h 2 v 8 h -2 z"
       id="rect17729"
       inkscape:connector-curvature="0" />
  </g>
</svg>
